Place,Name,Sex,BirthDate,Age,Equipment,Division,BodyweightKg,WeightClassKg,Squat1Kg,Squat2Kg,Squat3Kg,Best3SquatKg,Bench1Kg,Bench2Kg,Bench3Kg,Best3BenchKg,Deadlift1Kg,Deadlift2Kg,Deadlift3Kg,Best3DeadliftKg,TotalKg,Event
1,Nicole Thomason,F,1995-03-03,27,Wraps,FO-RP,68.55,75,110,125,135,135,40,55,-62.5,55,110,122.5,130,130,320,SBD
1,Rebecca Tory,F,1979-08-18,42,Multi-ply,FO-MP,62.85,67.5,140,150,-155,150,90,-100,100,100,140,150,-155,150,400,SBD
1,Alyce Reid,F,1987-07-05,34,Multi-ply,FO-MP,73.7,75,150,160,170,170,90,100,105,105,140,150,160,160,435,SBD
DQ,Melinda Brown,F,1985-11-01,36,Single-ply,FSM-SP,121.8,110+,,,,,-110,-120,-125,,,,,,,B
1,Christopher Skinner #1,M,2000-11-18,21,Raw,MJ-R,96.4,100,185,195,-200,195,135,-142.5,-142.5,135,215,225,230,230,560,SBD
1,Alec Pijcke,M,1996-03-05,26,Raw,MO-R,89.1,90,190,210,225,225,155,167.5,-172.5,167.5,230,240,250,250,642.5,SBD
1,Danny Vongphachanh,M,2006-04-17,16,Raw,MT2-R,54.7,56,110,-120,-130,110,82.5,87.5,-92.5,87.5,165,172.5,180,180,377.5,SBD
1,Daniel Heazlewood-Lee,M,2003-04-24,19,Raw,MT3-R,85.45,90,160,172.5,187.5,187.5,120,130,-137.5,130,180,190,200,200,517.5,SBD
1,Josh Pywell,M,1991-09-16,30,Raw,MO-R,96.9,100,215,222.5,230,230,122.5,130,-135,130,275,290,300,300,660,SBD
1,Carlos Adina,M,2006-01-13,16,Raw,MT2-R,71,75,155,165,170,170,97.5,102.5,105,105,205,215,225,225,500,SBD
1,Jagdish Chauhan,M,1969-08-12,52,Wraps,MM3-RP,65.5,67.5,145,155,-165,155,-75,82.5,-87.5,82.5,165,175,182.5,182.5,420,SBD
1,Manny Tsiolakis,M,1993-07-27,28,Wraps,MO-RP,102.9,110,220,232.5,240,240,140,145,152.5,152.5,220,237.5,-247.5,237.5,630,SBD
1,Ryan Sandeman,M,1978-01-05,44,Multi-ply,MM1-MP,109.2,110,250,-270,275,275,180,,,180,-245,-250,250,250,705,SBD
1,Peter Sutton #1,M,1976-12-11,45,Multi-ply,MO-MP,89.3,90,-250,250,260,260,190,-200,200,200,240,250,-260,250,710,SBD
1,Justin Faella,M,1985-05-04,,Multi-ply,MSM-MP,87.1,90,-245,245,-255,245,130,137.5,140,140,230,242.5,250,250,635,SBD
1,Mark Micallef,M,1979-05-20,42,Raw,MM1-R,88.8,90,,,,,-100,100,105,105,162.5,167.5,172.5,172.5,277.5,BD
1,Brendan Hains,M,1968-12-23,53,Raw,MM3-R,89.1,90,,,,,140,-150,-150,140,,,,,140,B
1,Glen Stewart,M,1967-09-29,54,Raw,MM3-R,94.55,100,,,,,,,,,260,,,260,260,D
