Place,Name,State,WeightClassKg,BodyweightKg,Age,Best3SquatKg,Best3BenchKg,Best3DeadliftKg,TotalKg,Sex,Division,Equipment,Deadlift4Kg,Event
1,Leinalyn Reduque,CA,52,51.8,20,75,32.5,107.5,215,F,Juniors 20-23,Raw,,SBD
1,Elizabeth Efird,CA,56,55.9,18,75,50,107.5,232.5,F,Juniors 18-19,Raw,,SBD
1,Hoang Pham,CA,56,54,22,85,47.5,127.5,260,F,Juniors 20-23,Raw,,SBD
1,Maren Sedy,CA,67.5,63.7,19,92.5,52.5,107.5,252.5,F,Juniors 18-19,Raw,,SBD
1,Caitlin Martinez #1,CA,67.5,65.4,21,155,93,182.5,430.5,F,Juniors 20-23,Raw,185.5,SBD
2,Donna Huynh,CA,67.5,65.3,22,112.5,47.5,142.5,302.5,F,Juniors 20-23,Raw,,SBD
3,Camille Klingfus,CA,67.5,66.1,20,97.5,55,125,277.5,F,Juniors 20-23,Raw,,SBD
4,Tiffany Nguyen,CA,67.5,60.4,20,85,47.5,120,252.5,F,Juniors 20-23,Raw,,SBD
1,Ashley Percy,CA,82.5,82.1,21,122.5,57.5,137.5,317.5,F,Juniors 20-23,Raw,,SBD
1,Allison Vick,CA,52,51.1,21,100,52.5,132.5,285,F,Open,Raw,,SBD
1,Claudia Chaloner,CA,56,55.6,29,135,72.5,155,362.5,F,Open,Raw,,SBD
2,Stephanie Pio,CA,56,54,27,110,55,137.5,302.5,F,Open,Raw,,SBD
3,Kelly Maddox,CA,56,55.3,25,97.5,55,127.5,280,F,Open,Raw,,SBD
4,Alyanna Summerfield,CA,56,54.8,28,92.5,47.5,127.5,267.5,F,Open,Raw,,SBD
1,Amanda Nguyen,CA,60,57.4,24,97.5,37.5,140,275,F,Open,Raw,,SBD
2,Clamencia Sandoval,CA,60,58.9,37,77.5,57.5,127.5,262.5,F,Open,Raw,,SBD
1,Sara Abaroa,CA,67.5,64.7,32,135,72.5,145,352.5,F,Open,Raw,,SBD
2,Aimee Anderson,CA,67.5,64.9,36,122.5,65,165,352.5,F,Open,Raw,,SBD
3,Edna Ferrer,CA,67.5,67.5,25,130,70,147.5,347.5,F,Open,Raw,,SBD
4,Brandi Moore,CA,67.5,66.7,44,97.5,72.5,140,310,F,Open,Raw,,SBD
5,Gabriela Cortes,CA,67.5,64.6,27,92.5,47.5,122.5,262.5,F,Open,Raw,,SBD
1,Ashley Vigil,CA,75,73,27,95,65,142.5,302.5,F,Open,Raw,,SBD
2,Elaine Ursua,CA,75,75,33,80,47.5,122.5,250,F,Open,Raw,,SBD
DQ,Heather Donovan,CA,75,73.7,26,-90,47.5,90,,F,Open,Raw,,SBD
1,Stacy Niao,CA,82.5,81,23,115,62.5,165,342.5,F,Open,Raw,,SBD
1,Lisa Quevedo,CA,90+,134,26,182.5,135,220,537.5,F,Open,Raw,,SBD
2,Adriana Barajas,CA,90+,113.5,33,130,82.5,147.5,360,F,Open,Raw,,SBD
3,Rezshenae Youngblood,CA,90+,125,25,112.5,67.5,160,340,F,Open,Raw,,SBD
4,Alice Summerfield,CA,90+,108.7,26,130,52.5,142.5,325,F,Open,Raw,,SBD
5,Meghan Schrab,CA,90+,98.5,28,92.5,55,117.5,265,F,Open,Raw,,SBD
1,Aimee Anderson,CA,67.5,64.9,36,122.5,65,165,352.5,F,Submasters 35-39,Raw,,SBD
1,Brandi Moore,CA,67.5,66.7,44,97.5,72.5,140,310,F,Masters 40-44,Raw,,SBD
1,Andres Quintero,CA,56,56,19,132.5,85,162.5,380,M,Juniors 18-19,Raw,163,SBD
1,Lester Nolasco,CA,56,54.5,21,110,87.5,150,347.5,M,Juniors 20-23,Raw,,SBD
1,Romel Reasonada,CA,67.5,62.7,22,137.5,110,202.5,450,M,Juniors 20-23,Raw,,SBD
2,Jeg Garachico,CA,67.5,66.7,22,145,102.5,202.5,450,M,Juniors 20-23,Raw,,SBD
3,Brendt Quismodo,CA,67.5,67.5,22,152.5,92.5,192.5,437.5,M,Juniors 20-23,Raw,,SBD
1,Louis Camua,CA,75,73.6,17,142.5,80,200,422.5,M,Juniors 16-17,Raw,,SBD
1,William Garcia,AZ,75,72.2,18,197.5,130,215,542.5,M,Juniors 18-19,Raw,,SBD
1,Michael Gregory,CA,75,73.6,23,170,115,242.5,527.5,M,Juniors 20-23,Raw,,SBD
2,Christopher Lopez,CA,75,72.1,23,142.5,97.5,182.5,422.5,M,Juniors 20-23,Raw,,SBD
1,Nahar Nasser,CA,82.5,80.7,19,127.5,102.5,227.5,457.5,M,Juniors 18-19,Raw,,SBD
1,Jovanni Lopez,CA,82.5,78.9,23,142.5,92.5,182.5,417.5,M,Juniors 20-23,Raw,,SBD
1,Jeremiah Salamat,CA,90,84.8,17,147.5,100,182.5,430,M,Juniors 16-17,Raw,,SBD
DQ,Christian Flores,CA,90,89.6,17,127.5,140,-145,,M,Juniors 16-17,Raw,,SBD
DQ,Anthony Diez,CA,90,88.6,19,-197.5,120,240,,M,Juniors 18-19,Raw,,SBD
1,Louie Ortiguerra,CA,90,90,20,197.5,130,225,552.5,M,Juniors 20-23,Raw,,SBD
1,Alex Efird,CA,100,93.6,16,187.5,102.5,222.5,512.5,M,Juniors 16-17,Raw,,SBD
1,Manvir Dhanoa,CA,100,97.6,19,195,142.5,205,542.5,M,Juniors 18-19,Raw,,SBD
1,Shawn Murphy #1,CA,100,95.7,20,257.5,150,280,687.5,M,Juniors 20-23,Raw,,SBD
1,Ryan Seaver,CA,67.5,67,24,127.5,102.5,172.5,402.5,M,Open,Raw,,SBD
1,William Garcia,AZ,75,72.2,18,197.5,130,215,542.5,M,Open,Raw,,SBD
2,Alan Hernandez #1,CA,75,74.8,27,165,137.5,225,527.5,M,Open,Raw,,SBD
3,Stephen Thomas,CA,75,74.3,30,170,125,205,500,M,Open,Raw,,SBD
4,Christopher Lopez,CA,75,72.1,23,142.5,97.5,182.5,422.5,M,Open,Raw,,SBD
1,Taras Chavarha,CA,82.5,82.2,24,245,155,255,655,M,Open,Raw,,SBD
2,Justin Aliotta,CA,82.5,80.4,33,190,127.5,230,547.5,M,Open,Raw,,SBD
3,Charlton Le,CA,82.5,79.9,24,162.5,107.5,235,505,M,Open,Raw,,SBD
4,Michael Turner,CA,82.5,81.5,29,177.5,110,205,492.5,M,Open,Raw,,SBD
5,Correy Jones,CA,82.5,79,26,162.5,110,202.5,475,M,Open,Raw,,SBD
1,Willie Pace,CA,90,89,27,250,190,242.5,682.5,M,Open,Raw,,SBD
2,Daniel Padilla,CA,90,89.2,33,222.5,145,240,607.5,M,Open,Raw,,SBD
3,Alvs Mondares,CA,90,86.7,28,215,127.5,225,567.5,M,Open,Raw,,SBD
4,Jermaine Castaneda,CA,90,88.4,24,185,127.5,240,552.5,M,Open,Raw,,SBD
5,Alex Safont,CA,90,85.6,33,182.5,142.5,217.5,542.5,M,Open,Raw,,SBD
6,Tonatiuh Rodriguez,CA,90,87.7,25,192.5,110,212.5,515,M,Open,Raw,,SBD
7,William Vazquez,CA,90,88.6,24,185,122.5,202.5,510,M,Open,Raw,,SBD
8,Fred Gomez,CA,90,89.4,31,167.5,137.5,202.5,507.5,M,Open,Raw,,SBD
9,Jake Meindering,CA,90,85.6,24,170,122.5,212.5,505,M,Open,Raw,,SBD
1,Kaleb Moore,CA,100,99.6,25,230,160,252.5,642.5,M,Open,Raw,,SBD
2,Joseph Park,CA,100,98.7,31,210,137.5,260,607.5,M,Open,Raw,,SBD
3,Matt Ward #2,CA,100,96.4,29,177.5,152.5,245,575,M,Open,Raw,,SBD
4,Anthony Brandon,CA,100,97.3,24,195,127.5,227.5,550,M,Open,Raw,,SBD
5,Jason Saenz,CA,100,100,38,220,110,212.5,542.5,M,Open,Raw,,SBD
6,Manuel Montion,CA,100,100,30,210,107.5,215,532.5,M,Open,Raw,,SBD
1,Aaron Terry,CA,110,109.3,26,307.5,177.5,332.5,817.5,M,Open,Raw,,SBD
2,Simon Menard,CA,110,108,24,232.5,200,320,752.5,M,Open,Raw,,SBD
3,Andrew Lombardo,CA,110,106.7,24,240,175,280,695,M,Open,Raw,,SBD
4,Kasey Housmans,CA,110,109.6,29,262.5,165,260,687.5,M,Open,Raw,,SBD
5,Tyler Rau,CA,110,106.4,32,212.5,150,235,597.5,M,Open,Raw,,SBD
1,Bruce Leaupepe,CA,125,121.6,24,245,215,297.5,757.5,M,Open,Raw,,SBD
1,Wolf Mirasol,CA,90,88.6,54,145,120,185,450,M,Masters 50-54,Raw,,SBD
1,Michael Efird,CA,110,109,44,217.5,155,230,602.5,M,Masters 40-44,Raw,,SBD
1,James Grant #3,CA,110,109.8,47,190,145,260,595,M,Masters 45-49,Raw,,SBD
1,Darcey Upp,CA,67.5,66.2,30,120,70,140,330,F,Open,Wraps,,SBD
DQ,Brittney Lechner,CA,67.5,65.6,24,105,-52.5,120,,F,Open,Wraps,,SBD
1,Sofya Bakalova,CA,90,85.6,32,100,57.5,157.5,315,F,Open,Wraps,,SBD
1,Allen Guevarra,CA,90,88.5,23,243,150,265,658,M,Juniors 20-23,Wraps,,SBD
DQ,Liam Elliot,CA,82.5,81.3,38,-190,115,212.5,,M,Open,Wraps,,SBD
1,Allen Guevarra,CA,90,88.5,23,243,150,265,658,M,Open,Wraps,,SBD
2,Frank Suchey,CA,90,89.7,26,177.5,127.5,240,545,M,Open,Wraps,,SBD
3,Christopher Michaels,CA,90,85.6,29,147.5,122.5,227.5,497.5,M,Open,Wraps,,SBD
DQ,Keith Enderlein,CA,90,88.8,26,-260,,,,M,Open,Wraps,,SBD
DQ,Aaron Capp,CA,100,99.7,37,212.5,145,-257.5,,M,Open,Wraps,,SBD
1,John Martinez,CA,110,108.5,36,187.5,155,225,567.5,M,Open,Wraps,,SBD
DQ,Steve Lopez,CA,110,107.1,34,225,-137.5,,,M,Open,Wraps,,SBD
1,Joshua Martinez,CA,125,121,27,235,152.5,280,667.5,M,Open,Wraps,,SBD
2,Scott Christian,CA,125,115.7,34,210,130,245,585,M,Open,Wraps,,SBD
DQ,Aaron Capp,CA,100,99.7,37,212.5,145,-257.5,,M,Submasters 35-39,Wraps,,SBD
1,Arnell Casteel,CA,140,133.6,37,75,160,287.5,522.5,M,Submasters 35-39,Wraps,,SBD
1,Jerry Moylan,CA,67.5,65.9,62,105,72.5,170,347.5,M,Masters 60-64,Wraps,,SBD
1,Raphael Sogliuzzo,CA,82.5,81.6,70,165,105,205,475,M,Masters 70-74,Wraps,,SBD
1,Marco Cadava,CA,90,89.7,51,202.5,112.5,197.5,512.5,M,Masters 50-54,Wraps,,SBD
1,Michael Pennington #1,CA,100,99.1,52,182.5,130,207.5,520,M,Masters 50-54,Wraps,,SBD
1,Jarred Benitez,CA,60,57.8,29,230,140,210,580,M,Open,Single-ply,,SBD
DQ,Calvin Law,CA,90,84.5,27,230,137.5,-255,,M,Open,Single-ply,,SBD
1,Mark Laurel,CA,75,74.9,54,130,147.5,163.5,441,M,Masters 50-54,Single-ply,165,SBD
1,Keith Dewalt,CA,60,59.5,38,,115,,115,M,Open,Raw,,B
1,Cesar Guadelupe,CA,75,73.7,27,,140,,140,M,Open,Raw,,B
1,Russell Kern,CA,90,88.2,30,,110,,110,M,Open,Raw,,B
1,Jens Hoffmann,CA,100,99.9,28,,200,,200,M,Open,Raw,,B
2,Denis Borisov,CA,100,98.3,38,,185,,185,M,Open,Raw,,B
1,Placido Gomez,NM,82.5,81.2,64,,112.5,,112.5,M,Masters 60-64,Raw,,B
1,Mark Laurel,CA,75,74.9,54,,147.5,,147.5,M,Open,Single-ply,,B
2,Randy Benitez,CA,75,73.1,59,,125,,125,M,Open,Single-ply,,B
1,Mark Laurel,CA,75,74.9,54,,147.5,,147.5,M,Masters 50-54,Single-ply,,B
1,Randy Benitez,CA,75,73.1,59,,125,,125,M,Masters 55-59,Single-ply,,B
1,Lupita Bermudez,CA,60,60,29,,,117.5,117.5,F,Open,Raw,,D
1,Sofya Bakalova,CA,90,85.6,32,,,157.5,157.5,F,Open,Raw,,D
1,Louie Ortiguerra,CA,90,90,20,,,225,225,M,Juniors 20-23,Raw,,D
1,Denis Borisov,CA,100,98.3,38,,,230,230,M,Open,Raw,,D
DQ,Aaron Capp,CA,100,99.7,37,,,-257.5,,M,Open,Raw,,D
1,Daniel Roa,CA,60,58.9,14,,,142.5,142.5,M,Juniors 13-15,Single-ply,,D
