Division,WeightClassKg,Place,Name,Team,BodyweightKg,Best3SquatKg,Best3BenchKg,Best3DeadliftKg,TotalKg,Equipment,Event,Sex,BirthDate
Boys,51.71,1,Eric Sanchez,Everman,50.89,158.76,102.06,165.56,426.38,Single-ply,SBD,M,
Boys,51.71,2,Cason Brazell,Keller,51.62,154.22,72.57,149.69,376.48,Single-ply,SBD,M,
Boys,51.71,3,John Wyatt #1,Fort Worth Chisholm Trail,50.8,147.42,81.65,145.15,374.21,Single-ply,SBD,M,
Boys,51.71,4,Trey Shirey,Prosper,50.62,136.08,86.18,145.15,367.41,Single-ply,SBD,M,
Boys,51.71,5,Bradley Skrdla,Azle,51.35,129.27,72.57,154.22,356.07,Single-ply,SBD,M,
Boys,51.71,6,Kody Tanimoto,Keller Central,50.71,102.06,83.91,147.42,333.39,Single-ply,SBD,M,
Boys,51.71,7,Joseph Sandoval,Azle,51.53,124.74,61.23,138.35,324.32,Single-ply,SBD,M,
Boys,51.71,8,Ben Marin,Wichita Falls,49.99,120.2,65.77,133.81,319.78,Single-ply,SBD,M,
Boys,51.71,9,Andrew Rodriguez,Keller Fossil Ridge,50.98,113.4,65.77,120.2,299.37,Single-ply,SBD,M,
Boys,51.71,DQ,Ryne Moncier,Princeton,51.62,,,,,Single-ply,SBD,M,
Boys,51.71,DQ,MD Jawwadullah,Frisco Liberty,51.17,,,,,Single-ply,SBD,M,
Boys,55.79,1,Zachary Rexin,Frisco Lebanon Trail,55.34,181.44,104.33,190.51,476.27,Single-ply,SBD,M,
Boys,55.79,2,Amari Crowder,Mansfield Timberview,55.79,188.24,86.18,183.7,458.13,Single-ply,SBD,M,
Boys,55.79,3,Ty Kirkbride,Denison,54.25,170.1,97.52,181.44,449.06,Single-ply,SBD,M,
Boys,55.79,4,George Isanda,Keller Fossil Ridge,55.79,154.22,104.33,172.37,430.91,Single-ply,SBD,M,
Boys,55.79,5,Peyton Hulett,Prosper,55.07,158.76,83.91,156.49,399.16,Single-ply,SBD,M,
Boys,55.79,6,Aidan Tran,Crowley,55.43,136.08,83.91,161.03,381.02,Single-ply,SBD,M,
Boys,55.79,7,Antonio Aldaco,Fort Worth Boswell,54.16,129.27,79.38,140.61,349.27,Single-ply,SBD,M,
Boys,55.79,8,Raymond Flores,White Settlement Brewer,53.98,113.4,81.65,145.15,340.19,Single-ply,SBD,M,
Boys,55.79,9,Joe Builtron,Fort Worth Boswell,54.07,102.06,70.31,140.61,312.98,Single-ply,SBD,M,
Boys,55.79,10,Zackary Moreno,Justin Northwest,53.61,117.93,70.31,117.93,306.17,Single-ply,SBD,M,
Boys,55.79,DQ,Easton Sayre,Frisco Lone Star,55.07,156.49,,,,Single-ply,SBD,M,
Boys,55.79,DQ,Carter Bakewell,Prosper,54.25,151.95,,,,Single-ply,SBD,M,
Boys,59.87,1,Jose Jimenez #10,Everman,59.24,240.4,117.93,204.12,562.45,Single-ply,SBD,M,
Boys,59.87,2,Kyson Lusane,Denison,58.6,197.31,131.54,195.04,523.9,Single-ply,SBD,M,
Boys,59.87,3,Dq Johnson,Keller Fossil Ridge,58.79,195.04,102.06,201.85,498.95,Single-ply,SBD,M,
Boys,59.87,4,Gabe Roberts,Keller Central,59.69,176.9,102.06,185.97,464.93,Single-ply,SBD,M,
Boys,59.87,5,Corey Hightower,Everman,57.97,183.7,113.4,147.42,444.52,Single-ply,SBD,M,
Boys,59.87,6,Carlos Aguilar,Frisco Lone Star,57.79,158.76,95.25,174.63,428.64,Single-ply,SBD,M,
Boys,59.87,7,Jaylee Chanthavee,Keller Fossil Ridge,58.88,156.49,88.45,183.7,428.64,Single-ply,SBD,M,
Boys,59.87,8,Caleb Garcia,Keller Timber Creek,59.42,167.83,83.91,163.29,415.04,Single-ply,SBD,M,
Boys,59.87,9,Trey Wood,Keller Fossil Ridge,58.42,142.88,95.25,161.03,399.16,Single-ply,SBD,M,
Boys,59.87,10,Grant Gilbert,Prosper Rock Hill,59.33,156.49,92.99,149.69,399.16,Single-ply,SBD,M,
Boys,59.87,11,Logan Claunch,Fort Worth Boswell,59.33,151.95,102.06,142.88,396.89,Single-ply,SBD,M,
Boys,59.87,12,Meschac Ntuaremba,Saginaw,56.61,142.88,83.91,163.29,390.09,Single-ply,SBD,M,
Boys,59.87,DQ,Trevon Atchinson,Fort Worth Polytechnic,59.69,183.7,102.06,,,Single-ply,SBD,M,
Boys,59.87,DQ,Blake Erlewein,Frisco Reedy,59.15,,,,,Single-ply,SBD,M,
Boys,67.13,1,Ryan Nash,Frisco Reedy,66.5,242.67,124.74,235.87,603.28,Single-ply,SBD,M,
Boys,67.13,2,Nic Doros,Frisco Wakeland,65.86,226.8,124.74,204.12,555.65,Single-ply,SBD,M,
Boys,67.13,3,Djonny Mukuna,Saginaw,66.22,199.58,113.4,215.46,528.44,Single-ply,SBD,M,
Boys,67.13,4,Tyler Rodgers,Granbury,67.13,181.44,120.2,215.46,517.1,Single-ply,SBD,M,
Boys,67.13,5,Alan Santana,Little Elm,65.86,183.7,106.59,201.85,492.15,Single-ply,SBD,M,
Boys,67.13,6,Gavin Hacker,Azle,65.41,192.78,99.79,192.78,485.34,Single-ply,SBD,M,
Boys,67.13,7,Tyler Earwood,Frisco Reedy,66.32,183.7,102.06,192.78,478.54,Single-ply,SBD,M,
Boys,67.13,8,Donovan Armistead,Frisco Reedy,66.59,179.17,124.74,170.1,474,Single-ply,SBD,M,
Boys,67.13,9,Ralen Allen,Everman,63.59,170.1,104.33,192.78,467.2,Single-ply,SBD,M,
Boys,67.13,10,Brian Nguyen,Keller Fossil Ridge,65.5,181.44,79.38,174.63,435.45,Single-ply,SBD,M,
Boys,74.84,1,Marco DeTomas,Prosper,72.57,233.6,142.88,226.8,603.28,Single-ply,SBD,M,
Boys,74.84,2,Jack Estill,Keller Central,74.66,219.99,161.03,208.65,589.67,Single-ply,SBD,M,
Boys,74.84,3,Braden Manners,Keller Central,74.39,226.8,147.42,204.12,578.33,Single-ply,SBD,M,
Boys,74.84,4,Zackary Garringer,Frisco Lebanon Trail,72.76,224.53,124.74,219.99,569.26,Single-ply,SBD,M,
Boys,74.84,5,Kevin Nyguen,Azle,73.12,197.31,142.88,226.8,566.99,Single-ply,SBD,M,
Boys,74.84,6,Colten Wilson,Fort Worth Boswell,69.22,204.12,106.59,242.67,553.38,Single-ply,SBD,M,
Boys,74.84,7,Jordan DeHoyos,Fort Worth Boswell,72.03,192.78,122.47,217.72,532.97,Single-ply,SBD,M,
Boys,74.84,8,Ryan Fong,McKinney,72.21,204.12,104.33,219.99,528.44,Single-ply,SBD,M,
Boys,74.84,9,Jacob Migura,Lucas Lovejoy,72.3,192.78,124.74,197.31,514.83,Single-ply,SBD,M,
Boys,74.84,10,Brody Craft,Keller Central,72.94,195.04,117.93,183.7,496.68,Single-ply,SBD,M,
Boys,74.84,DQ,Daley Phillips,Lucas Lovejoy,70.4,206.38,104.33,,,Single-ply,SBD,M,
Boys,74.84,DQ,Preston Lutgen,Granbury,74.84,179.17,124.74,,,Single-ply,SBD,M,
Boys,82.1,1,Carter Shell,Keller Timber Creek,81.65,306.17,188.24,247.21,741.62,Single-ply,SBD,M,
Boys,82.1,2,Alec Boyle,White Settlement Brewer,82.01,233.6,190.51,215.46,639.57,Single-ply,SBD,M,
Boys,82.1,3,Caleb Forte,Frisco Liberty,80.38,226.8,151.95,231.33,610.08,Single-ply,SBD,M,
Boys,82.1,4,Marcellus Toombs,Prosper,80.56,215.46,151.95,226.8,594.21,Single-ply,SBD,M,
Boys,82.1,5,Chase Kaden,Northwest Eaton,79.02,217.72,142.88,210.92,571.53,Single-ply,SBD,M,
Boys,82.1,6,Barrett Smith,Weatherford,79.38,213.19,140.61,215.46,569.26,Single-ply,SBD,M,
Boys,82.1,7,Cooper Benston,Frisco Reedy,81.65,206.38,167.83,192.78,566.99,Single-ply,SBD,M,
Boys,82.1,8,Marco Gizzo,Prosper Rock Hill,81.83,222.26,117.93,226.8,566.99,Single-ply,SBD,M,
Boys,82.1,9,Kingsley Opara,Mansfield Timberview,80.47,219.99,117.93,219.99,557.92,Single-ply,SBD,M,
Boys,82.1,10,Dawson Turrell,Frisco Reedy,81.47,197.31,158.76,201.85,557.92,Single-ply,SBD,M,
Boys,82.1,11,Ivan Rosas,Keller Fossil Ridge,79.83,199.58,117.93,238.14,555.65,Single-ply,SBD,M,
Boys,82.1,12,Noah Stegman,Denison,81.19,183.7,142.88,217.72,544.31,Single-ply,SBD,M,
Boys,82.1,13,Ja'Kayln Browder,Everman,78.11,204.12,104.33,217.72,526.17,Single-ply,SBD,M,
Boys,82.1,DQ,Aaron Shafer,Denison,80.38,240.4,,,,Single-ply,SBD,M,
Boys,82.1,DQ,Ibrahim Durodoye,Justin Northwest,79.2,219.99,,,,Single-ply,SBD,M,
Boys,89.81,1,Khalil Smith,Frisco Reedy,89.36,233.6,174.63,256.28,664.51,Single-ply,SBD,M,
Boys,89.81,2,Payton Henninger,Prosper,87.72,240.4,142.88,251.74,635.03,Single-ply,SBD,M,
Boys,89.81,3,Jake Lewis,Frisco Reedy,88.54,235.87,185.97,213.19,635.03,Single-ply,SBD,M,
Boys,89.81,4,Shone Mombo,Fort Worth Chisholm Trail,89.81,229.06,136.08,249.48,614.62,Single-ply,SBD,M,
Boys,89.81,5,Davhon Keys,Aledo,89.27,217.72,136.08,240.4,594.21,Single-ply,SBD,M,
Boys,89.81,6,Corey Thompson,Mansfield Lake Ridge,84.55,226.8,131.54,233.6,591.94,Single-ply,SBD,M,
Boys,89.81,DQ,Mason Davis,Prosper,87.54,,,,,Single-ply,SBD,M,
Boys,89.81,DQ,Xander Womack,Allen,89.09,,,,,Single-ply,SBD,M,
Boys,89.81,DQ,Gavin Dennis #2,Frisco Memorial,86.55,265.35,,,,Single-ply,SBD,M,
Boys,99.79,1,Zach Essih,Mansfield Timberview,96.8,276.69,149.69,256.28,682.66,Single-ply,SBD,M,
Boys,99.79,2,Daniel Seals,Weatherford,91.81,242.67,181.44,240.4,664.51,Single-ply,SBD,M,
Boys,99.79,3,Tyler Balsarick,Keller Central,99.34,238.14,174.63,215.46,628.23,Single-ply,SBD,M,
Boys,99.79,4,Luke Johnson,Prosper,97.52,247.21,145.15,226.8,619.15,Single-ply,SBD,M,
Boys,99.79,5,Will Brown,Lucas Lovejoy,97.79,258.55,113.4,244.94,616.89,Single-ply,SBD,M,
Boys,99.79,6,Parker Lutgen,Granbury,99.79,217.72,140.61,244.94,603.28,Single-ply,SBD,M,
Boys,99.79,7,Kirk Finnell,Wichita Falls Rider,96.89,233.6,147.42,204.12,585.13,Single-ply,SBD,M,
Boys,99.79,8,Alex Arana,Aledo,91.72,235.87,131.54,215.46,582.87,Single-ply,SBD,M,
Boys,99.79,9,Colten Hope,Aledo,96.07,219.99,136.08,213.19,569.26,Single-ply,SBD,M,
Boys,99.79,10,Tymadre Ross,Everman,98.43,226.8,149.69,192.78,569.26,Single-ply,SBD,M,
Boys,99.79,DQ,Brayden Olthoff,Granbury,98.79,251.74,188.24,,,Single-ply,SBD,M,
Boys,99.79,DQ,Courtney Pruitt,White Settlement Brewer,98.16,242.67,154.22,,,Single-ply,SBD,M,
Boys,109.77,1,Kolten Trevino,Granbury,106.59,292.57,179.17,242.67,714.41,Single-ply,SBD,M,
Boys,109.77,2,Casy Adjei,Prosper Rock Hill,101.33,285.76,161.03,263.08,709.87,Single-ply,SBD,M,
Boys,109.77,3,Andrew Bailey,Princeton,105.78,251.74,183.7,265.35,700.8,Single-ply,SBD,M,
Boys,109.77,4,Jeff Ross,Wichita Falls Rider,104.33,254.01,154.22,231.33,639.57,Single-ply,SBD,M,
Boys,109.77,5,Ryan Clark,Weatherford,108.59,249.48,163.29,226.8,639.57,Single-ply,SBD,M,
Boys,109.77,6,Anthony Seay,Frisco Heritage,105.14,260.82,158.76,215.46,635.03,Single-ply,SBD,M,
Boys,109.77,7,Evan Warren,Crowley,105.23,254.01,147.42,222.26,623.69,Single-ply,SBD,M,
Boys,109.77,8,Andy Portales,Fort Worth Chisholm Trail,104.87,226.8,136.08,254.01,616.89,Single-ply,SBD,M,
Boys,109.77,9,Dc Thompson,Crowley,107.68,229.06,156.49,224.53,610.08,Single-ply,SBD,M,
Boys,109.77,10,Casey Griffin,Mansfield Legacy,101.6,231.33,113.4,238.14,582.87,Single-ply,SBD,M,
Boys,109.77,11,Cameron Bork,Little Elm,104.78,208.65,165.56,201.85,576.06,Single-ply,SBD,M,
Boys,124.74,1,Robert Orr #1,White Settlement Brewer,118.66,290.3,170.1,244.94,705.34,Single-ply,SBD,M,
Boys,124.74,2,Karson Daniel,Weatherford,118.12,272.16,188.24,235.87,696.26,Single-ply,SBD,M,
Boys,124.74,3,Nash Gagliano,Prosper,123.2,276.69,192.78,226.8,696.26,Single-ply,SBD,M,
Boys,124.74,4,Ansel Din-Mbuh,Aledo,117.48,272.16,158.76,235.87,666.78,Single-ply,SBD,M,
Boys,124.74,5,Austin Lyon,Fort Worth Boswell,120.56,272.16,156.49,238.14,666.78,Single-ply,SBD,M,
Boys,124.74,6,Colin Beesley,Prosper,121.83,276.69,156.49,233.6,666.78,Single-ply,SBD,M,
Boys,124.74,7,Jacob Speer,Princeton,121.65,265.35,170.1,219.99,655.44,Single-ply,SBD,M,
Boys,124.74,8,Danny Simmons,Fort Worth Chisholm Trail,111.22,235.87,181.44,233.6,650.91,Single-ply,SBD,M,
Boys,124.74,9,Yonas Daniel,Northwest Eaton,123.1,251.74,158.76,238.14,648.64,Single-ply,SBD,M,
Boys,124.74,DQ,Kevin Allen,Everman,120.2,274.42,145.15,,,Single-ply,SBD,M,
Boys,124.74,DQ,Austin Kawecki,Frisco Lebanon Trail,123.1,244.94,165.56,,,Single-ply,SBD,M,
Boys,139.71,1,Adrian Anderson,Everman,135.9,319.78,197.31,226.8,743.89,Single-ply,SBD,M,
Boys,139.71,2,Keshaun Johnson,Keller Fossil Ridge,139.71,317.51,172.37,210.92,700.8,Single-ply,SBD,M,
Boys,139.71,3,Brady Uhlmann,Frisco Memorial,137.53,265.35,183.7,231.33,680.39,Single-ply,SBD,M,
Boys,139.71,4,Senon Chapple,Keller Fossil Ridge,126.46,249.48,138.35,258.55,646.37,Single-ply,SBD,M,
Boys,139.71,5,Colton Green,Wichita Falls Rider,138.8,249.48,165.56,231.33,646.37,Single-ply,SBD,M,
Boys,139.71,6,Zach McKinley,Mansfield Legacy,124.83,235.87,140.61,242.67,619.15,Single-ply,SBD,M,
Boys,139.71,7,Ed Zavala,Keller Fossil Ridge,125.19,272.16,147.42,190.51,610.08,Single-ply,SBD,M,
Boys,139.71,8,Chason McCue,Weatherford,132.9,238.14,167.83,188.24,594.21,Single-ply,SBD,M,
Boys,139.71,9,Devron Williams,Aledo,137.44,226.8,133.81,195.04,555.65,Single-ply,SBD,M,
Boys,139.71,DQ,Drew Garcia,Saginaw,135.53,226.8,129.27,,,Single-ply,SBD,M,
Boys,139.71,DQ,Tatum Feigle,Mansfield Lake Ridge,134.26,272.16,136.08,,,Single-ply,SBD,M,
Boys,139.71+,1,Seth Martin,Everman,142.88,317.51,174.63,294.84,786.98,Single-ply,SBD,M,
Boys,139.71+,2,Alex Sutton,Granbury,144.51,290.3,199.58,274.42,764.3,Single-ply,SBD,M,
Boys,139.71+,3,Biola Oyelade,Mansfield Summit,141.34,283.5,165.56,263.08,712.14,Single-ply,SBD,M,
Boys,139.71+,4,Cameron Hutcherson,White Settlement Brewer,161.84,278.96,156.49,244.94,680.39,Single-ply,SBD,M,
Boys,139.71+,5,Jahir Orocio,Granbury,142.61,260.82,163.29,217.72,641.83,Single-ply,SBD,M,
Boys,139.71+,6,Xzaviah Milton,Saginaw,145.88,265.35,188.24,181.44,635.03,Single-ply,SBD,M,
Boys,139.71+,7,Mekhi Robinson,Wichita Falls Rider,144.79,258.55,158.76,192.78,610.08,Single-ply,SBD,M,
Boys,139.71+,8,Bami Badusi,Mansfield Timberview,140.61,235.87,154.22,204.12,594.21,Single-ply,SBD,M,
Boys,139.71+,9,Xavier King,Weatherford,155.58,240.4,142.88,199.58,582.87,Single-ply,SBD,M,
Boys,139.71+,DQ,David Johnson,Princeton,154.58,260.82,183.7,,,Single-ply,SBD,M,
Boys,139.71+,DQ,Matthew Larsen,Justin Northwest,148.32,272.16,158.76,,,Single-ply,SBD,M,
Boys,139.71+,DQ,Connor Stroh,Frisco Wakeland,159.66,,,,,Single-ply,SBD,M,
Boys,,NS,Abrahim Sakiri,Northwest Nelson,,,,,,Single-ply,SBD,M,
Boys,,NS,Dan Dang,Mansfield Timberview,,,,,,Single-ply,SBD,M,
