Division,WeightClassKg,Place,Name,Team,BodyweightKg,Best3SquatKg,Best3BenchKg,Best3DeadliftKg,TotalKg,Equipment,Event,Sex
Boys,51.71,1,Carlos Salazar,Manvel,50.8,120.2,63.5,124.74,308.44,Single-ply,SBD,M
Boys,51.71,2,Crisoforo Ayala,Pasadena Rayburn,48.81,104.33,65.77,127.01,297.1,Single-ply,SBD,M
Boys,51.71,3,Jacory Bellnamy,Houston Madison,50.8,117.93,49.9,117.93,285.76,Single-ply,SBD,M
Boys,51.71,4,Hunter Gartman,Clute Brazoswood,50.98,102.06,49.9,108.86,260.82,Single-ply,SBD,M
Boys,55.79,DQ,Paul Bass,Katy Mayde Creek,51.89,117.93,52.16,,,Single-ply,SBD,M
Boys,59.87,1,Cameron Guillen,Clute Brazoswood,55.97,154.22,79.38,163.29,396.89,Single-ply,SBD,M
Boys,59.87,2,Dominic Monsivaiz,Dickinson,55.97,158.76,86.18,149.69,394.63,Single-ply,SBD,M
Boys,55.79,3,Eric Flores,Katy Mayde Creek,55.7,138.35,77.11,156.49,371.95,Single-ply,SBD,M
Boys,55.79,4,Chein Phan,Dickinson,55.7,142.88,65.77,158.76,367.41,Single-ply,SBD,M
Boys,55.79,5,Santiago Centeno,Bay City,55.07,124.74,77.11,142.88,344.73,Single-ply,SBD,M
Boys,55.79,6,Jilani Austin,Needville,55.16,124.74,65.77,133.81,324.32,Single-ply,SBD,M
Boys,59.87,7,Brian Morales,Needville,56.02,113.4,77.11,131.54,322.05,Single-ply,SBD,M
Boys,55.79,8,Brandon Jordan,Dickinson,55.25,102.06,77.11,104.33,283.5,Single-ply,SBD,M
Boys,55.79,9,Matt Britt,Manvel,52.16,102.06,58.97,117.93,278.96,Single-ply,SBD,M
Boys,67.13,1,Jakob Rios,Clute Brazoswood,60.1,161.03,95.25,167.83,424.11,Single-ply,SBD,M
Boys,67.13,2,Kevin Lozano,Bay City,60.06,147.42,95.25,161.03,403.7,Single-ply,SBD,M
Boys,59.87,3,Brandon Martinez,Dickinson,59.6,158.76,83.91,158.76,401.43,Single-ply,SBD,M
Boys,59.87,4,Saulo Olvera,Needville,59.87,131.54,97.52,163.29,392.36,Single-ply,SBD,M
Boys,67.13,5,Caleb Ross,Clute Brazoswood,60.1,142.88,83.91,158.76,385.55,Single-ply,SBD,M
Boys,67.13,6,Ricardo Zelaya,Houston Chavez,59.96,129.27,92.99,142.88,365.14,Single-ply,SBD,M
Boys,59.87,7,Chris Taylor #7,Freeport Brazosport,58.79,140.61,79.38,136.08,356.07,Single-ply,SBD,M
Boys,67.13,8,Matt Rice,Conroe Oak Ridge,59.96,117.93,92.99,138.35,349.27,Single-ply,SBD,M
Boys,59.87,9,Arth Patel,Manvel,56.52,106.59,70.31,124.74,301.64,Single-ply,SBD,M
Boys,59.87,DQ,Zac Caminade,Santa Fe,56.34,,,,,Single-ply,SBD,M
Boys,67.13,1,Tyler Marcel,Conroe Oak Ridge,65.5,201.85,140.61,219.99,562.45,Single-ply,SBD,M
Boys,67.13,2,Ricardo Barragan,Alvin,66.22,167.83,111.13,185.97,464.93,Single-ply,SBD,M
Boys,67.13,3,Osvaldo Sardina,Danbury,67.04,156.49,102.06,204.12,462.66,Single-ply,SBD,M
Boys,67.13,4,Zachary Mutchler,Manvel,63.05,179.17,113.4,165.56,458.13,Single-ply,SBD,M
Boys,67.13,5,Brady Abowd,Pearland,63.78,179.17,97.52,170.1,446.79,Single-ply,SBD,M
Boys,74.84,6,Chris Patton,Katy Mayde Creek,67.36,163.29,92.99,181.44,437.72,Single-ply,SBD,M
Boys,67.13,7,Brandyn Ginyard,Pasadena Dobie,63.68,154.22,92.99,163.29,410.5,Single-ply,SBD,M
Boys,67.13,8,David Glover,Danbury,65.5,154.22,90.72,151.95,396.89,Single-ply,SBD,M
Boys,67.13,9,Gilberto Pellaguad,Pasadena Rayburn,63.05,154.22,79.38,161.03,394.63,Single-ply,SBD,M
Boys,67.13,10,Ricky Delacerda,Dickinson,62.23,142.88,77.11,158.76,378.75,Single-ply,SBD,M
Boys,67.13,11,Jarvis Roberson,Clute Brazoswood,63.87,133.81,90.72,151.95,376.48,Single-ply,SBD,M
Boys,67.13,12,Shawn Glover,Danbury,61.42,129.27,92.99,147.42,369.68,Single-ply,SBD,M
Boys,67.13,DQ,Josh Rodriguez,Clute Brazoswood,64.77,156.49,77.11,,,Single-ply,SBD,M
Boys,67.13,DQ,Rickie Griffin,Houston Westbury,62.69,113.4,,,,Single-ply,SBD,M
Boys,67.13,DQ,Tyvarian Lane,Stafford,60.42,142.88,,,,Single-ply,SBD,M
Boys,67.13,DQ,Roy Lewis,Houston Westbury,66.86,167.83,83.91,,,Single-ply,SBD,M
Boys,74.84,1,Samuel Fisher,Bay City,70.03,204.12,124.74,210.92,539.77,Single-ply,SBD,M
Boys,82.1,2,Raine Spafford,Pearland,75.07,208.65,129.27,201.85,539.77,Single-ply,SBD,M
Boys,74.84,3,Da'Shaun Smith,Bay City,73.57,208.65,117.93,208.65,535.24,Single-ply,SBD,M
Boys,74.84,4,Tahj Edwards,Freeport Brazosport,74.75,190.51,111.13,210.92,512.56,Single-ply,SBD,M
Boys,82.1,5,Nick Durst,Conroe Oak Ridge,75.07,195.04,108.86,199.58,503.49,Single-ply,SBD,M
Boys,82.1,6,Dodi Vasquez,Dickinson,75.02,174.63,122.47,183.7,480.81,Single-ply,SBD,M
Boys,74.84,7,Marshall Surovik,Texas City,70.85,154.22,97.52,188.24,439.98,Single-ply,SBD,M
Boys,74.84,8,Kevin Dunaway,Manvel,73.12,163.29,90.72,170.1,424.11,Single-ply,SBD,M
Boys,74.84,9,Jose Lopes,Houston Milby,69.58,158.76,68.04,142.88,369.68,Single-ply,SBD,M
Boys,74.84,10,Cameron Simms,Houston Madison,69.49,149.69,70.31,124.74,344.73,Single-ply,SBD,M
Boys,82.1,11,Kolbi Foster,Clute Brazoswood,75.07,142.88,70.31,129.27,342.46,Single-ply,SBD,M
Boys,74.84,12,Joaquin Rogriguez,Pasadena Rayburn,69.04,124.74,83.91,117.93,326.59,Single-ply,SBD,M
Boys,74.84,13,John Wilson,Santa Fe,72.03,113.4,79.38,104.33,297.1,Single-ply,SBD,M
Boys,74.84,DQ,Nefi Hernandez,Texas City,67.68,183.7,,,,Single-ply,SBD,M
Boys,74.84,DQ,Javier Granados,Needville,68.22,106.59,,,,Single-ply,SBD,M
Boys,74.84,DQ,Michael Salazar,Manvel,72.57,195.04,124.74,,,Single-ply,SBD,M
Boys,74.84,DQ,Eloi Fernandez,Alvin,74.3,188.24,,,,Single-ply,SBD,M
Boys,74.84,DQ,Hernan Ramirez,Alvin,68.04,,,,,Single-ply,SBD,M
Boys,82.1,DQ,Josh McKinney,Santa Fe,75.07,167.83,115.67,,,Single-ply,SBD,M
Boys,82.1,1,John Saenz,Clute Brazoswood,80.83,258.55,136.08,210.92,605.55,Single-ply,SBD,M
Boys,82.1,2,Jonathan Voltaire,Conroe Oak Ridge,79.74,204.12,133.81,219.99,557.92,Single-ply,SBD,M
Boys,82.1,3,Terrence Giles,Alvin,80.2,206.38,142.88,201.85,551.11,Single-ply,SBD,M
Boys,82.1,4,Raymond Gonzalez,Bay City,80.56,188.24,113.4,206.38,508.02,Single-ply,SBD,M
Boys,82.1,5,Leonard Owens,Manvel,76.29,183.7,127.01,188.24,498.95,Single-ply,SBD,M
Boys,82.1,6,Eric Lucio,Bay City,78.2,192.78,102.06,204.12,498.95,Single-ply,SBD,M
Boys,82.1,7,David Mejia,Pasadena Rayburn,77.75,154.22,81.65,158.76,394.63,Single-ply,SBD,M
Boys,82.1,8,Rowdy Brakhage,Santa Fe,77.2,111.13,79.38,145.15,335.66,Single-ply,SBD,M
Boys,82.1,9,Rudy Gonzalez,Houston Milby,79.92,113.4,83.91,138.35,335.66,Single-ply,SBD,M
Boys,82.1,DQ,Jonathan Franklin,Houston Westbury,82.01,138.35,,,,Single-ply,SBD,M
Boys,82.1,DQ,Nick Bell,Clute Brazoswood,76.66,,,,,Single-ply,SBD,M
Boys,82.1,DQ,Ricky Lerma,Needville,81.83,185.97,113.4,,,Single-ply,SBD,M
Boys,89.81,1,Chris Sherrill,Bay City,88,258.55,158.76,226.8,644.1,Single-ply,SBD,M
Boys,89.81,2,Carlos García,Alvin,83.46,229.06,145.15,226.8,601.01,Single-ply,SBD,M
Boys,89.81,3,Caleb Lamberth,Manvel,85.18,208.65,127.01,204.12,539.77,Single-ply,SBD,M
Boys,89.81,4,Eric Hembling,Clute Brazoswood,85.55,190.51,111.13,233.6,535.24,Single-ply,SBD,M
Boys,89.81,5,Tyler Tullos,Conroe Oak Ridge,87.54,215.46,131.54,179.17,526.17,Single-ply,SBD,M
Boys,89.81,6,Aaron Sollock,Clute Brazoswood,83.46,197.31,136.08,181.44,514.83,Single-ply,SBD,M
Boys,89.81,7,Jd Holden,Manvel,84.91,156.49,124.74,188.24,469.47,Single-ply,SBD,M
Boys,89.81,8,James Ashe,Clute Brazoswood,82.92,172.37,77.11,154.22,403.7,Single-ply,SBD,M
Boys,89.81,9,Tyler Gay,Houston Chavez,84.55,140.61,106.59,147.42,394.63,Single-ply,SBD,M
Boys,89.81,10,Richard Ward,Houston Madison,86.27,151.95,92.99,149.69,394.63,Single-ply,SBD,M
Boys,89.81,11,Dallas Garret,Houston Westbury,87.72,156.49,70.31,167.83,394.63,Single-ply,SBD,M
Boys,89.81,DQ,Luis Santiago,Pasadena Memorial,83.73,176.9,83.91,,,Single-ply,SBD,M
Boys,89.81,DQ,David Eudoxie,Clute Brazoswood,88.99,165.56,104.33,,,Single-ply,SBD,M
Boys,89.81,DQ,Jason Forsberg,Dickinson,87.45,158.76,106.59,,,Single-ply,SBD,M
Boys,89.81,DQ,Trevor Anderson,Dickinson,87.72,124.74,,,,Single-ply,SBD,M
Boys,109.77,DQ,Richy Ortiz,Bay City,100.02,,,,,Single-ply,SBD,M
Boys,99.79,2,Jovito Mendez,Needville,98.61,238.14,142.88,226.8,607.81,Single-ply,SBD,M
Boys,99.79,3,Stevan Gonzalvez,Clute Brazoswood,96.98,247.21,142.88,201.85,591.94,Single-ply,SBD,M
Boys,99.79,4,Jonathan Delrey,Conroe Oak Ridge,97.79,226.8,120.2,210.92,557.92,Single-ply,SBD,M
Boys,99.79,5,Jorge Oviedo,Pasadena Memorial,98.25,199.58,108.86,231.33,539.77,Single-ply,SBD,M
Boys,99.79,6,Christian Rodriguez #8,Pasadena Memorial,98.88,219.99,117.93,192.78,530.7,Single-ply,SBD,M
Boys,99.79,7,Julian Simien,Manvel,90.45,213.19,115.67,199.58,528.44,Single-ply,SBD,M
Boys,99.79,8,Tristan Anderson,Dickinson,95.25,183.7,88.45,195.04,467.2,Single-ply,SBD,M
Boys,99.79,9,Sam Cepeda,Pasadena Memorial,94.17,170.1,90.72,192.78,453.59,Single-ply,SBD,M
Boys,99.79,10,Tahj Gaillard,Houston Westbury,94.44,147.42,70.31,156.49,374.21,Single-ply,SBD,M
Boys,99.79,11,Germain Zuniga,Pasadena Rayburn,97.34,20.41,170.1,20.41,210.92,Single-ply,SBD,M
Boys,99.79,DQ,Wyatt Denson,Needville,91.26,158.76,,,,Single-ply,SBD,M
Boys,99.79,DQ,Daniel Martinez #15,Freeport Brazosport,90.99,,,,,Single-ply,SBD,M
Boys,99.79,DQ,Nathan Weaver,Clute Brazoswood,95.25,,,,,Single-ply,SBD,M
Boys,99.79,DQ,Jesse Castillo,Santa Fe,95.16,161.03,102.06,,,Single-ply,SBD,M
Boys,99.79,DQ,Elton Woodard III,Stafford,95.16,190.51,,,,Single-ply,SBD,M
Boys,99.79,DQ,D'Vonta Hinton,Texas City,95.25,,,,,Single-ply,SBD,M
Boys,109.77,1,Nestor Mendez,Freeport Brazosport,106.96,249.48,158.76,256.28,664.51,Single-ply,SBD,M
Boys,109.77,2,JR Rodriguez,Bay City,104.51,285.76,142.88,219.99,648.64,Single-ply,SBD,M
Boys,109.77,3,Malcolm Pringle,Houston Westbury,103.69,219.99,136.08,238.14,594.21,Single-ply,SBD,M
Boys,109.77,4,Carwin Bingham,Manvel,104.96,226.8,115.67,226.8,569.26,Single-ply,SBD,M
Boys,109.77,5,Cristian Vargas,Bay City,106.32,226.8,145.15,195.04,566.99,Single-ply,SBD,M
Boys,109.77,6,Corey Shields,Clute Brazoswood,106.41,226.8,124.74,204.12,555.65,Single-ply,SBD,M
Boys,109.77,7,Anthony Cantu,Pasadena Dobie,104.51,208.65,129.27,174.63,512.56,Single-ply,SBD,M
Boys,109.77,8,Troy Beckham,Clute Brazoswood,108.59,197.31,138.35,158.76,494.42,Single-ply,SBD,M
Boys,109.77,9,Michael Jaurez,Pasadena Rayburn,100.88,181.44,120.2,185.97,487.61,Single-ply,SBD,M
Boys,109.77,10,Brandon Clay,Dickinson,105.6,204.12,129.27,149.69,483.08,Single-ply,SBD,M
Boys,109.77,11,Livian Lopez,Dickinson,103.78,170.1,108.86,192.78,471.74,Single-ply,SBD,M
Boys,124.74,12,Christian Brown,Danbury,109.86,188.24,102.06,179.17,469.47,Single-ply,SBD,M
Boys,109.77,13,Jerry Ojeda,Houston Milby,102.33,174.63,102.06,183.7,460.4,Single-ply,SBD,M
Boys,124.74,14,Kyler Gentry,Santa Fe,110,165.56,106.59,185.97,458.13,Single-ply,SBD,M
Boys,109.77,15,Remington Felder,Katy Mayde Creek,101.15,170.1,92.99,188.24,451.32,Single-ply,SBD,M
Boys,109.77,16,Robert Guidry,Manvel,107.59,151.95,92.99,199.58,444.52,Single-ply,SBD,M
Boys,109.77,17,Sam Spicer,Clute Brazoswood,102.42,170.1,113.4,158.76,442.25,Single-ply,SBD,M
Boys,109.77,18,Dustin Powell,Santa Fe,109.5,154.22,74.84,163.29,392.36,Single-ply,SBD,M
Boys,109.77,19,Sean Calais,Houston Westbury,108.86,133.81,92.99,158.76,385.55,Single-ply,SBD,M
Boys,124.74,DQ,Antoine Newman,Houston Madison,110,142.88,,138.35,,Single-ply,SBD,M
Boys,109.77,DQ,Bryan Herrera,Pearland,108.14,,,,,Single-ply,SBD,M
Boys,109.77,DQ,Jimmy Lafuta,Clute Brazoswood,108.5,272.16,151.95,,,Single-ply,SBD,M
Boys,109.77,DQ,Jared Reedy,Dickinson,109.13,240.4,120.2,,,Single-ply,SBD,M
Boys,109.77,DQ,John Shine,Houston Chavez,104.78,111.13,,,,Single-ply,SBD,M
Boys,109.77,DQ,Kenneth Cooper,Santa Fe,102.06,147.42,90.72,,,Single-ply,SBD,M
Boys,109.77,DQ,Lorenzo Beaza,Texas City,102.24,,,,,Single-ply,SBD,M
Boys,109.77,DQ,Anietie Etuk,Dickinson,107.77,61.23,147.42,,,Single-ply,SBD,M
Boys,109.77,DQ,Kaylond North,Dickinson,106.96,61.23,138.35,,,Single-ply,SBD,M
Boys,124.74,1,Nathaniel Flores,Pasadena Dobie,114.94,238.14,183.7,226.8,648.64,Single-ply,SBD,M
Boys,124.74,2,Javier Vega,Pasadena Rayburn,122.92,267.62,145.15,233.6,646.37,Single-ply,SBD,M
Boys,124.74,3,Tk Oyedele,Katy Mayde Creek,116.3,249.48,161.03,229.06,639.57,Single-ply,SBD,M
Boys,124.74,4,Eduardo Moran,Katy Mayde Creek,116.3,272.16,140.61,226.8,639.57,Single-ply,SBD,M
Boys,124.74,5,Young Troung,Pasadena Dobie,118.75,238.14,147.42,242.67,628.23,Single-ply,SBD,M
Boys,124.74,6,Jonathan Alfred,Manvel,123.1,238.14,145.15,235.87,619.15,Single-ply,SBD,M
Boys,124.74,7,Luis Barron,Danbury,117.03,210.92,129.27,213.19,553.38,Single-ply,SBD,M
Boys,124.74,8,Scott Christ,Manvel,122.47,217.72,113.4,210.92,542.04,Single-ply,SBD,M
Boys,124.74+,9,Alex Hernandez #15,Pasadena Rayburn,124.96,215.46,106.59,204.12,526.17,Single-ply,SBD,M
Boys,124.74,10,Tim Thomas,Pasadena Memorial,120.66,226.8,99.79,181.44,508.02,Single-ply,SBD,M
Boys,124.74,11,Victor Esquivel,Clute Brazoswood,115.76,174.63,122.47,151.95,449.06,Single-ply,SBD,M
Boys,124.74,12,Isaac Pena,Pasadena Rayburn,115.67,172.37,97.52,176.9,446.79,Single-ply,SBD,M
Boys,124.74,13,Dario Jimenez,Houston Milby,122.74,151.95,102.06,183.7,437.72,Single-ply,SBD,M
Boys,124.74,14,CJ Bench,Clute Brazoswood,115.67,165.56,95.25,163.29,424.11,Single-ply,SBD,M
Boys,124.74,15,Cadell Fruend,Needville,113.58,149.69,65.77,156.49,371.95,Single-ply,SBD,M
Boys,124.74,16,Santos Lazos,Clute Brazoswood,111.4,142.88,68.04,129.27,340.19,Single-ply,SBD,M
Boys,124.74,DQ,Demond Linsey,Houston Chavez,118.3,124.74,124.74,,,Single-ply,SBD,M
Boys,124.74,DQ,Alan Nduli,Houston Sharpstown,117.48,,158.76,,,Single-ply,SBD,M
Boys,124.74,DQ,Malik Essilfie,Katy Mayde Creek,116.94,244.94,,,,Single-ply,SBD,M
Boys,124.74,DQ,James Brock,Katy Mayde Creek,116.39,204.12,,,,Single-ply,SBD,M
Boys,124.74,DQ,Oshaun Lewis,Houston Westbury,123.83,226.8,,231.33,,Single-ply,SBD,M
Boys,124.74+,1,William Simpson,Houston Madison,149.5,353.8,215.46,226.8,796.05,Single-ply,SBD,M
Boys,124.74+,DQ,Dwayne Taylor #2,Texas City,136.35,,,,,Single-ply,SBD,M
Boys,124.74+,3,Alex Pina,Clute Brazoswood,125.01,251.74,161.03,199.58,612.35,Single-ply,SBD,M
Boys,124.74+,4,Darian Tryals,Texas City,143.79,231.33,142.88,226.8,601.01,Single-ply,SBD,M
Boys,124.74+,5,Anthony Hunter,Manvel,152.86,256.28,122.47,215.46,594.21,Single-ply,SBD,M
Boys,124.74+,6,Chance Cummings #3,Dickinson,138.53,217.72,129.27,226.8,573.79,Single-ply,SBD,M
Boys,124.74+,7,John Vasquez,Dickinson,140.43,238.14,122.47,210.92,571.53,Single-ply,SBD,M
Boys,124.74+,8,Jonathan Pecina,Houston Westbury,128.37,181.44,99.79,195.04,476.27,Single-ply,SBD,M
Boys,124.74+,9,Kevin Maddox,Houston Madison,153.13,163.29,102.06,170.1,435.45,Single-ply,SBD,M
Boys,124.74+,10,Kevin Pena,Pasadena Rayburn,131.72,147.42,99.79,167.83,415.04,Single-ply,SBD,M
Boys,124.74+,11,Trevion Benoit,Houston Madison,133.27,149.69,102.06,158.76,410.5,Single-ply,SBD,M
Boys,124.74+,12,Chance Harmanson,Dickinson,136.89,61.23,,,61.23,Single-ply,S,M
Boys,124.74+,DQ,Ryan Sagmiller,Conroe Oak Ridge,135.99,247.21,,,,Single-ply,S,M
Boys,124.74+,DQ,Rodolfo Barajas,Houston Milby,125.28,181.44,,,,Single-ply,S,M
Boys,124.74+,DQ,Reyne Ramos,Houston Chavez,185.52,,,,,Single-ply,S,M
Boys,124.74+,DQ,Alonzo Crittendon,Dickinson,141.52,356.07,,,,Single-ply,S,M
