Division,WeightClassKg,Place,Name,Team,BodyweightKg,Best3SquatKg,Best3BenchKg,Best3DeadliftKg,TotalKg,Equipment,Event,Sex
Boys,55.79,1,Angel Bermudez,Poteet,51.94,151.95,97.52,154.22,403.7,Single-ply,SBD,M
Boys,51.71,2,Caleb Vera,Poteet,46.22,92.99,54.43,104.33,251.74,Single-ply,SBD,M
Boys,51.71,3,Michael Ortiz,Somerset,49.21,63.5,49.9,90.72,204.12,Single-ply,SBD,M
Boys,51.71,4,Justan Griggs,Castroville Medina Valley,44.72,63.5,40.82,77.11,181.44,Single-ply,SBD,M
Boys,55.79,1,Jermaine Mendiola,Somerset,52.8,174.63,74.84,161.03,410.5,Single-ply,SBD,M
Boys,55.79,2,Elijah Gonzales,San Antonio East Central,55.07,145.15,99.79,158.76,403.7,Single-ply,SBD,M
Boys,59.87,3,Micheal Donato,San Antonio Memorial,56.02,122.47,74.84,129.27,326.59,Single-ply,SBD,M
Boys,59.87,4,Raul Guerra,Poteet,55.97,113.4,86.18,124.74,324.32,Single-ply,SBD,M
Boys,55.79,5,Sebastian Estrada,Somerset,55.07,104.33,61.23,136.08,301.64,Single-ply,SBD,M
Boys,55.79,6,Jacob Salinas,Kenedy,53.75,92.99,54.43,115.67,263.08,Single-ply,SBD,M
Boys,55.79,7,Ruben Mendez,Castroville Medina Valley,55.11,92.99,52.16,104.33,249.48,Single-ply,SBD,M
Boys,55.79,DQ,Joe Anthony Oliva,Poteet,55.29,90.72,56.7,,,Single-ply,SBD,M
Boys,55.79,DQ,Jose Rocha,Somerset,54.34,47.63,,,,Single-ply,SBD,M
Boys,59.87,1,Ricky Guerra,Poteet,58.69,195.04,124.74,206.38,526.17,Single-ply,SBD,M
Boys,59.87,2,Parth Patel,Kenedy,58.83,170.1,102.06,192.78,464.93,Single-ply,SBD,M
Boys,67.13,3,Mark Levisay,Floresville,60.1,161.03,104.33,183.7,449.06,Single-ply,SBD,M
Boys,59.87,4,Kris Imhof,San Antonio Cole,58.97,149.69,83.91,174.63,408.23,Single-ply,SBD,M
Boys,59.87,5,Matthew Medrano,Pearsall,59.78,142.88,79.38,183.7,405.97,Single-ply,SBD,M
Boys,59.87,6,Jose Chapa,Castroville Medina Valley,59.74,158.76,95.25,142.88,396.89,Single-ply,SBD,M
Boys,59.87,7,Victor Monsevais,Kenedy,58.65,136.08,72.57,181.44,390.09,Single-ply,SBD,M
Boys,59.87,8,Garrison Kindred,Castroville Medina Valley,58.47,108.86,74.84,127.01,310.71,Single-ply,SBD,M
Boys,67.13,1,Nathan Ruiz,San Antonio East Central,66.45,204.12,151.95,226.8,582.87,Single-ply,SBD,M
Boys,67.13,2,Samuel Navarro,Beeville Jones,66.41,215.46,127.01,210.92,553.38,Single-ply,SBD,M
Boys,67.13,3,Tyler Gould,Pleasanton,67.13,172.37,99.79,183.7,455.86,Single-ply,SBD,M
Boys,74.84,4,Jadran Ramirez,Kenedy,67.18,158.76,88.45,206.38,453.59,Single-ply,SBD,M
Boys,67.13,5,Aaron Realme,Pearsall,60.69,154.22,86.18,161.03,401.43,Single-ply,SBD,M
Boys,67.13,6,Rene Rodriguez,Pearsall,62.05,136.08,92.99,163.29,392.36,Single-ply,SBD,M
Boys,67.13,7,Andrew Aguero,Kenedy,63.55,136.08,95.25,145.15,376.48,Single-ply,SBD,M
Boys,67.13,8,Noah Rodriguez,Kenedy,64.41,111.13,72.57,131.54,315.25,Single-ply,SBD,M
Boys,67.13,9,Damon Hermosa,Kenedy,63.5,108.86,70.31,131.54,310.71,Single-ply,SBD,M
Boys,74.84,10,Zack Whitely,Castroville Medina Valley,67.36,97.52,61.23,113.4,272.16,Single-ply,SBD,M
Boys,67.13,11,Micheal Camacho,San Antonio Memorial,63.87,90.72,40.82,133.81,265.35,Single-ply,SBD,M
Boys,67.13,DQ,Effrain Botello,Castroville Medina Valley,60.96,133.81,,154.22,,Single-ply,SBD,M
Boys,67.13,DQ,Martin Delgado,Pearsall,63.32,,,,,Single-ply,SBD,M
Boys,74.84,DQ,Sid Alcoser,Somerset,67.36,,,,,Single-ply,SBD,M
Boys,74.84,1,Elvis Benitez,San Antonio East Central,69.17,210.92,151.95,217.72,580.6,Single-ply,SBD,M
Boys,74.84,2,Stefen Villanueva,Floresville,73.89,179.17,104.33,201.85,485.34,Single-ply,SBD,M
Boys,74.84,3,Scott Gonzales,Floresville,67.81,183.7,113.4,185.97,483.08,Single-ply,SBD,M
Boys,74.84,4,Leroy Torres,Castroville Medina Valley,74.16,163.29,115.67,181.44,460.4,Single-ply,SBD,M
Boys,74.84,5,Francisco Martinez,Poteet,73.66,142.88,124.74,156.49,424.11,Single-ply,SBD,M
Boys,74.84,6,Dustin Torres,Beeville Jones,72.85,151.95,106.59,158.76,417.3,Single-ply,SBD,M
Boys,74.84,7,Ivan Fernandez,Castroville Medina Valley,69.22,147.42,86.18,158.76,392.36,Single-ply,SBD,M
Boys,74.84,8,Adrian Sustaita,Castroville Medina Valley,73.16,136.08,81.65,167.83,385.55,Single-ply,SBD,M
Boys,74.84,9,Hunter Duplessis,San Antonio Cole,71.58,129.27,83.91,142.88,356.07,Single-ply,SBD,M
Boys,74.84,10,Alec Oliar,San Antonio Cole,71.3,129.27,79.38,136.08,344.73,Single-ply,SBD,M
Boys,74.84,11,Derrick Carroll,Beeville Jones,68.04,113.4,81.65,142.88,337.93,Single-ply,SBD,M
Boys,74.84,12,Joe Angel Posada,Beeville Jones,67.86,97.52,79.38,142.88,319.78,Single-ply,SBD,M
Boys,74.84,13,Sol Rodriguez,Pearsall,68.9,113.4,79.38,122.47,315.25,Single-ply,SBD,M
Boys,74.84,14,Angel Vega,Castroville Medina Valley,67.63,70.31,68.04,90.72,229.06,Single-ply,SBD,M
Boys,82.1,1,Tristan Pelitire,Beeville Jones,75.66,244.94,161.03,235.87,641.83,Single-ply,SBD,M
Boys,82.1,2,Christopher Vinton,Pearsall,79.56,226.8,133.81,206.38,566.99,Single-ply,SBD,M
Boys,89.81,3,Isaac Mendoza,San Antonio East Central,82.24,213.19,138.35,204.12,555.65,Single-ply,SBD,M
Boys,82.1,4,Thomas Trevino,Pleasanton,81.96,213.19,124.74,210.92,548.85,Single-ply,SBD,M
Boys,82.1,5,AJ Camacho,Hondo,80.74,226.8,122.47,195.04,544.31,Single-ply,SBD,M
Boys,82.1,6,Dustin Webb,San Antonio East Central,79.2,210.92,131.54,199.58,542.04,Single-ply,SBD,M
Boys,82.1,7,Cj Felux,Floresville,75.75,201.85,111.13,224.53,537.51,Single-ply,SBD,M
Boys,82.1,8,Elliot Ramirez,San Antonio Memorial,78.97,142.88,92.99,158.76,394.63,Single-ply,SBD,M
Boys,82.1,9,Oscar de Luna,San Antonio Memorial,76.97,122.47,70.31,115.67,308.44,Single-ply,SBD,M
Boys,82.1,10,Bryce Macdonald,Castroville Medina Valley,77.75,102.06,68.04,102.06,272.16,Single-ply,SBD,M
Boys,89.81,1,Matt Ritch,San Antonio East Central,87.86,288.03,172.37,244.94,705.34,Single-ply,SBD,M
Boys,89.81,2,John Valdez,Somerset,85.14,215.46,145.15,206.38,566.99,Single-ply,SBD,M
Boys,89.81,3,Tyler Crisp,Poteet,89.68,219.99,102.06,219.99,542.04,Single-ply,SBD,M
Boys,89.81,4,Demetri Molina,Somerset,85,215.46,120.2,199.58,535.24,Single-ply,SBD,M
Boys,89.81,5,Thomas Rodriguez,Somerset,88.5,199.58,95.25,190.51,485.34,Single-ply,SBD,M
Boys,89.81,6,Josh Guerra,Castroville Medina Valley,84.14,147.42,117.93,190.51,455.86,Single-ply,SBD,M
Boys,89.81,7,Joshua Ramirez,Floresville,86.64,161.03,106.59,181.44,449.06,Single-ply,SBD,M
Boys,89.81,8,Zach Reeves,San Antonio Cole,83.55,161.03,104.33,167.83,433.18,Single-ply,SBD,M
Boys,89.81,9,Nick Calderone,San Antonio Cole,83.51,158.76,108.86,149.69,417.3,Single-ply,SBD,M
Boys,89.81,10,Mark Sustaita,Castroville Medina Valley,86.18,151.95,81.65,172.37,405.97,Single-ply,SBD,M
Boys,89.81,11,Joshua Cuevas,Pearsall,83.32,140.61,90.72,156.49,387.82,Single-ply,SBD,M
Boys,89.81,12,Joseph Epperson,Pearsall,85.09,102.06,74.84,154.22,331.12,Single-ply,SBD,M
Boys,89.81,13,Jose R Chapa,Castroville Medina Valley,88.36,111.13,74.84,115.67,301.64,Single-ply,SBD,M
Boys,89.81,DQ,Rudy Martel,Pleasanton,85.59,,,,,Single-ply,SBD,M
Boys,99.79,1,Jacob Flores,Beeville Jones,90.45,249.48,142.88,249.48,641.83,Single-ply,SBD,M
Boys,109.77,2,Joey Mendez,San Antonio Memorial,100.02,256.28,120.2,222.26,598.74,Single-ply,SBD,M
Boys,99.79,3,Ray Palame,Pearsall,99.11,181.44,124.74,215.46,521.63,Single-ply,SBD,M
Boys,99.79,4,Joey Sanchez,Somerset,92.03,201.85,111.13,201.85,514.83,Single-ply,SBD,M
Boys,99.79,5,Bryce Sandoval,Poteet,98.11,192.78,117.93,192.78,503.49,Single-ply,SBD,M
Boys,99.79,6,David Nieto,Pearsall,90.67,192.78,131.54,176.9,501.22,Single-ply,SBD,M
Boys,99.79,7,Tyler Mamre,San Antonio Cole,96.21,174.63,117.93,176.9,469.47,Single-ply,SBD,M
Boys,99.79,8,Joseph Galyon,Castroville Medina Valley,95.71,176.9,111.13,172.37,460.4,Single-ply,SBD,M
Boys,99.79,9,Aaron Puga,Beeville Jones,95.21,156.49,117.93,179.17,453.59,Single-ply,SBD,M
Boys,99.79,10,Jose Coronado,San Antonio Memorial,94.03,165.56,88.45,156.49,410.5,Single-ply,SBD,M
Boys,99.79,DQ,Andrew Garcia,Pleasanton,93.53,,,,,Single-ply,SBD,M
Boys,109.77,1,Jeremy Chamberlain,San Antonio East Central,107.5,272.16,174.63,267.62,714.41,Single-ply,SBD,M
Boys,109.77,2,Caesar Soto,San Antonio East Central,106.96,294.84,158.76,215.46,669.05,Single-ply,SBD,M
Boys,109.77,3,Tom Anthony,San Antonio East Central,105.19,204.12,149.69,215.46,569.26,Single-ply,SBD,M
Boys,109.77,4,Jacob Ybarra,Somerset,109.41,226.8,149.69,192.78,569.26,Single-ply,SBD,M
Boys,109.77,5,Matthew Botello,Beeville Jones,108.45,190.51,136.08,208.65,535.24,Single-ply,SBD,M
Boys,109.77,6,Adrian Puga,Beeville Jones,105.69,183.7,124.74,197.31,505.76,Single-ply,SBD,M
Boys,109.77,7,Andres Garzes,San Antonio Memorial,109.36,195.04,104.33,174.63,474,Single-ply,SBD,M
Boys,109.77,8,Abraham Mayo,San Antonio Cole,104.05,158.76,113.4,158.76,430.91,Single-ply,SBD,M
Boys,109.77,9,Fabian Morales,San Antonio Memorial,106.23,149.69,104.33,151.95,405.97,Single-ply,SBD,M
Boys,109.77,DQ,Martin Mendez,San Antonio Memorial,104.01,,,,,Single-ply,SBD,M
Boys,109.77,DQ,Joe Tovar,Somerset,105.51,,,,,Single-ply,SBD,M
Boys,109.77,DQ,Christian Buckmaster,Beeville Jones,105.1,,,,,Single-ply,SBD,M
Boys,124.74,1,Daniel De Leon,San Antonio East Central,112.35,272.16,145.15,254.01,671.32,Single-ply,SBD,M
Boys,124.74,2,Manuel Macias,Floresville,114.35,249.48,192.78,215.46,657.71,Single-ply,SBD,M
Boys,124.74,3,Bj Frieda,Somerset,114.8,249.48,142.88,206.38,598.74,Single-ply,SBD,M
Boys,124.74,4,Austin Banks-Wilson,Castroville Medina Valley,114.31,215.46,136.08,222.26,573.79,Single-ply,SBD,M
Boys,124.74,5,Joe Reschmann,Somerset,123.83,242.67,136.08,192.78,571.53,Single-ply,SBD,M
Boys,124.74,6,Noel Mallet,Pleasanton,123.29,213.19,124.74,170.1,508.02,Single-ply,SBD,M
Boys,124.74,7,Hector Garcia #8,Poteet,114.4,181.44,104.33,172.37,458.13,Single-ply,SBD,M
Boys,124.74,8,Jonah Masters,San Antonio Cole,120.56,158.76,92.99,188.24,439.98,Single-ply,SBD,M
Boys,124.74+,1,Charest Inman,Castroville Medina Valley,149.46,283.5,208.65,249.48,741.62,Single-ply,SBD,M
Boys,124.74+,2,James Cooksey,Kenedy,139.25,244.94,120.2,244.94,610.08,Single-ply,SBD,M
Boys,124.74+,3,Daniel Ramirez,Somerset,127.55,249.48,124.74,226.8,601.01,Single-ply,SBD,M
Boys,124.74+,4,Michael Balderas,Poteet,125.51,260.82,113.4,197.31,571.53,Single-ply,SBD,M
Boys,124.74+,5,Ronnie Lucio,Poteet,141.02,222.26,113.4,215.46,551.11,Single-ply,SBD,M
Boys,124.74+,6,Chris Cobb,Somerset,137.26,158.76,102.06,163.29,424.11,Single-ply,SBD,M
Boys,124.74+,7,Tristan Chavera,Castroville Medina Valley,133.27,149.69,81.65,151.95,383.29,Single-ply,SBD,M
Boys,124.74+,DQ,Albert Briones,Beeville Jones,129.18,,,,,Single-ply,SBD,M
Boys,124.74+,DQ,Mike Romero,Somerset,147.19,219.99,149.69,195.04,,Single-ply,SBD,M
Boys,,NS,Matthew Gerosa,San Antonio Cole,,,,,,Single-ply,SBD,M
Boys,,NS,David Sosa,San Antonio Cole,,,,,,Single-ply,SBD,M
Boys,,NS,Darrian Jones,San Antonio Cole,,,,,,Single-ply,SBD,M
Boys,,NS,Bernard Aguilar,Poteet,,,,,,Single-ply,SBD,M
Boys,,NS,Nick Delgado,Pleasanton,,,,,,Single-ply,SBD,M
