Division,WeightClassKg,Place,Name,Team,BodyweightKg,Best3SquatKg,Best3BenchKg,Best3DeadliftKg,TotalKg,Equipment,Event,Sex
Boys,51.71,1,Wesley Lover,Karnes City,51.71,79.38,47.63,102.06,229.06,Single-ply,SBD,M
Boys,59.87,1,Zach Truillo,Universal City Randolph,55.97,122.47,65.77,127.01,315.25,Single-ply,SBD,M
Boys,55.79,2,Robert Morin,Karnes City,55.52,90.72,58.97,99.79,249.48,Single-ply,SBD,M
Boys,59.87,3,Robert Tappan,Comfort,55.97,86.18,61.23,102.06,249.48,Single-ply,SBD,M
Boys,59.87,4,Xavier Huerta,Lytle,55.88,86.18,45.36,83.91,215.46,Single-ply,SBD,M
Boys,59.87,1,John Dugi,Stockdale,59.78,142.88,92.99,165.56,401.43,Single-ply,SBD,M
Boys,59.87,2,Nathan Pringle,Lytle,57.61,115.67,72.57,140.61,328.85,Single-ply,SBD,M
Boys,67.13,1,Darion McMahan,Stockdale,61.42,197.31,136.08,183.7,517.1,Single-ply,SBD,M
Boys,67.13,2,Justin Hartman,Universal City Randolph,61.69,163.29,83.91,136.08,383.29,Single-ply,SBD,M
Boys,67.13,3,Taylor Carrillo,Lytle,66.41,120.2,86.18,156.49,362.87,Single-ply,SBD,M
Boys,67.13,4,Conner Thayn,Comfort,63.78,106.59,63.5,124.74,294.84,Single-ply,SBD,M
Boys,67.13,5,Craig Jacobs,Center Point,64.59,117.93,68.04,104.33,290.3,Single-ply,SBD,M
Boys,67.13,6,Chris Taylor #9,Comfort,65.95,90.72,61.23,120.2,272.16,Single-ply,SBD,M
Boys,74.84,7,Trever Horvath,Castroville Medina Valley,67.31,147.42,113.4,,260.82,Single-ply,SB,M
Boys,67.13,8,Chris Cherry,Center Point,63.32,102.06,65.77,88.45,256.28,Single-ply,SBD,M
Boys,67.13,9,Hunter Rust,Comfort,61.23,81.65,63.5,77.11,222.26,Single-ply,SBD,M
Boys,67.13,DQ,Tj Kwapich,Castroville Medina Valley,61.96,129.27,,,,Single-ply,SBD,M
Boys,67.13,DQ,Matt Valadez,Stockdale,67.13,,,,,Single-ply,SBD,M
Boys,74.84,1,Masen Lindner,Comfort,74.03,158.76,127.01,167.83,453.59,Single-ply,SBD,M
Boys,74.84,2,Trey Washington,Universal City Randolph,70.13,145.15,104.33,195.04,444.52,Single-ply,SBD,M
Boys,74.84,3,Jordan Ribera,Dripping Springs,74.84,163.29,90.72,158.76,412.77,Single-ply,SBD,M
Boys,74.84,4,Matt Chapa,Center Point,71.85,158.76,102.06,145.15,405.97,Single-ply,SBD,M
Boys,82.1,5,Lemuel Ramirez,Center Point,74.93,156.49,92.99,142.88,392.36,Single-ply,SBD,M
Boys,74.84,6,Ian Buehler,Dripping Springs,74.84,142.88,92.99,145.15,381.02,Single-ply,SBD,M
Boys,74.84,7,Chase Lindner,Comfort,72.03,131.54,97.52,147.42,376.48,Single-ply,SBD,M
Boys,74.84,8,Dylan Aguinago,Lytle,72.85,127.01,83.91,165.56,376.48,Single-ply,SBD,M
Boys,74.84,9,Hanz Torres,Bandera,68.31,129.27,90.72,147.42,367.41,Single-ply,SBD,M
Boys,74.84,10,Jeremy Del Toro,San Antonio Kennedy,68.22,136.08,77.11,145.15,358.34,Single-ply,SBD,M
Boys,74.84,11,Ryan Buehler,Dripping Springs,74.84,129.27,88.45,124.74,342.46,Single-ply,SBD,M
Boys,74.84,12,Justin Faulkner,Comfort,69.76,106.59,79.38,133.81,319.78,Single-ply,SBD,M
Boys,74.84,13,Leroy Davis,Castroville Medina Valley,68.95,120.2,70.31,124.74,315.25,Single-ply,SBD,M
Boys,74.84,DQ,Harley Garcia,Karnes City,74.84,,,,,Single-ply,SBD,M
Boys,74.84,DQ,Alonzo Barclift,Universal City Randolph,74.84,,,,,Single-ply,SBD,M
Boys,74.84,DQ,Conner McLaughlin,Stockdale,72.76,,,,,Single-ply,SBD,M
Boys,82.1,DQ,Brenner Haby,Castroville Medina Valley,75.02,147.42,,,,Single-ply,SBD,M
Boys,74.84,DQ,Easton Beard,Dripping Springs,74.84,,,,,Single-ply,SBD,M
Boys,82.1,1,Rueben Hinojosa,Lytle,81.37,206.38,120.2,222.26,548.85,Single-ply,SBD,M
Boys,82.1,2,Joe Estrada,Jourdanton,77.84,210.92,149.69,185.97,546.58,Single-ply,SBD,M
Boys,82.1,3,Zack Bosquez,Comfort,78.38,161.03,113.4,183.7,458.13,Single-ply,SBD,M
Boys,82.1,4,Hunter Peterson,Castroville Medina Valley,78.02,174.63,104.33,176.9,455.86,Single-ply,SBD,M
Boys,82.1,5,Mario Munoz,Center Point,76.57,185.97,102.06,165.56,453.59,Single-ply,SBD,M
Boys,82.1,6,Jake Martinez,Lytle,78.65,158.76,102.06,185.97,446.79,Single-ply,SBD,M
Boys,82.1,7,Christian Rodriguez #11,Stockdale,78.74,158.76,95.25,183.7,437.72,Single-ply,SBD,M
Boys,82.1,8,Lawrence Carrasco,Karnes City,80.92,136.08,106.59,183.7,426.38,Single-ply,SBD,M
Boys,82.1,9,Daniel Ramirez,San Antonio Kennedy,75.39,156.49,102.06,165.56,424.11,Single-ply,SBD,M
Boys,82.1,10,Garrett Pressler,Comfort,78.2,145.15,83.91,165.56,394.63,Single-ply,SBD,M
Boys,82.1,11,Freddie Larry,Universal City Randolph,81.01,142.88,92.99,158.76,394.63,Single-ply,SBD,M
Boys,82.1,12,Steven Louteback,Dripping Springs,82.1,145.15,90.72,154.22,390.09,Single-ply,SBD,M
Boys,82.1,13,Nicholas Quintanilla,Karnes City,79.74,145.15,92.99,145.15,383.29,Single-ply,SBD,M
Boys,82.1,14,Orlando Medrano,Lytle,76.2,131.54,95.25,147.42,374.21,Single-ply,SBD,M
Boys,89.81,15,Rd McCarrell,Jourdanton,82.19,122.47,88.45,156.49,367.41,Single-ply,SBD,M
Boys,82.1,16,Nick Graner,Dripping Springs,79.74,133.81,79.38,149.69,362.87,Single-ply,SBD,M
Boys,82.1,17,Hunter Elias,Dripping Springs,82.1,138.35,90.72,122.47,351.53,Single-ply,SBD,M
Boys,82.1,18,Elias Estrada,Karnes City,78.02,129.27,79.38,129.27,337.93,Single-ply,SBD,M
Boys,82.1,DQ,Trevor Goodman,Dripping Springs,82.1,,,,,Single-ply,SBD,M
Boys,89.81,1,Carlos Carrillo,Lytle,87.82,181.44,124.74,208.65,514.83,Single-ply,SBD,M
Boys,89.81,2,Cole Thompson,Universal City Randolph,88.45,190.51,120.2,181.44,492.15,Single-ply,SBD,M
Boys,89.81,3,Mark Bocanegra,Jourdanton,88.72,183.7,115.67,163.29,462.66,Single-ply,SBD,M
Boys,89.81,4,Ryan Farrell,Universal City Randolph,85.18,158.76,92.99,181.44,433.18,Single-ply,SBD,M
Boys,89.81,5,Robert Duenes,Karnes City,89.63,151.95,92.99,161.03,405.97,Single-ply,SBD,M
Boys,89.81,6,Julian Valdovinos,Bandera,86.64,145.15,92.99,163.29,401.43,Single-ply,SBD,M
Boys,89.81,7,Rudy Pena,San Antonio Kennedy,86.64,142.88,90.72,158.76,392.36,Single-ply,SBD,M
Boys,89.81,8,Fred Carrasco,San Antonio Kennedy,89.72,131.54,90.72,163.29,385.55,Single-ply,SBD,M
Boys,89.81,9,Trey Sauceda,Karnes City,89.81,136.08,102.06,136.08,374.21,Single-ply,SBD,M
Boys,89.81,DQ,Justin Laque,Castroville Medina Valley,89.45,,,,,Single-ply,SBD,M
Boys,89.81,DQ,Isaac Robles #3,Castroville Medina Valley,89.81,,,,,Single-ply,SBD,M
Boys,99.79,1,Weston Block,Karnes City,93.08,192.78,106.59,204.12,503.49,Single-ply,SBD,M
Boys,99.79,2,Austin Block,Karnes City,90.72,197.31,115.67,183.7,496.68,Single-ply,SBD,M
Boys,99.79,3,Dustin Phelps,Universal City Randolph,98.07,185.97,106.59,181.44,474,Single-ply,SBD,M
Boys,99.79,4,Avery McThompson,Dripping Springs,94.44,165.56,122.47,165.56,453.59,Single-ply,SBD,M
Boys,99.79,5,Nick Ringler,Universal City Randolph,97.16,163.29,113.4,163.29,439.98,Single-ply,SBD,M
Boys,99.79,6,Tyler Pharris,Universal City Randolph,98.34,158.76,113.4,158.76,430.91,Single-ply,SBD,M
Boys,99.79,7,Sam Jones #1,Universal City Randolph,90.54,147.42,70.31,158.76,376.48,Single-ply,SBD,M
Boys,99.79,8,Aaron Lopez,Karnes City,94.98,129.27,86.18,142.88,358.34,Single-ply,SBD,M
Boys,99.79,9,Paulino Bosquez,San Antonio Kennedy,97.43,92.99,56.7,113.4,263.08,Single-ply,SBD,M
Boys,99.79,DQ,Jake Ramey,Dripping Springs,99.79,,,,,Single-ply,SBD,M
Boys,99.79,DQ,Lucas Taulli,Bandera,99.79,,,,,Single-ply,SBD,M
Boys,99.79,DQ,Hunter Prince,Bandera,99.43,136.08,92.99,,,Single-ply,SBD,M
Boys,99.79,DQ,Juan Landa,Castroville Medina Valley,97.52,185.97,,,,Single-ply,SBD,M
Boys,109.77,1,Enrique Lugo,Jourdanton,105.78,240.4,158.76,215.46,614.62,Single-ply,SBD,M
Boys,109.77,2,Israel Aguero,Jourdanton,107.95,206.38,127.01,195.04,528.44,Single-ply,SBD,M
Boys,109.77,3,Izzy Hayes,Bandera,103.24,172.37,111.13,181.44,464.93,Single-ply,SBD,M
Boys,124.74,4,Bryce Dowda,Bandera,109.95,167.83,111.13,179.17,458.13,Single-ply,SBD,M
Boys,109.77,5,Jeremy Ybarra,San Antonio Kennedy,101.97,142.88,108.86,165.56,417.3,Single-ply,SBD,M
Boys,109.77,6,Duke Aguirre,San Antonio Kennedy,106.68,127.01,88.45,181.44,396.89,Single-ply,SBD,M
Boys,109.77,7,Marc Hubbard,Comfort,108.5,142.88,90.72,156.49,390.09,Single-ply,SBD,M
Boys,109.77,8,Nicholas Guzman,Karnes City,103.87,136.08,99.79,138.35,374.21,Single-ply,SBD,M
Boys,109.77,9,Gary La Rue,San Antonio Kennedy,101.51,117.93,72.57,145.15,335.66,Single-ply,SBD,M
Boys,124.74,1,John Mendoza,Karnes City,112.13,213.19,133.81,235.87,582.87,Single-ply,SBD,M
Boys,124.74,2,Jon Macat,Lytle,112.49,204.12,120.2,210.92,535.24,Single-ply,SBD,M
Boys,124.74,3,Adam Gonzales,San Antonio Kennedy,116.57,165.56,127.01,167.83,460.4,Single-ply,SBD,M
Boys,124.74,4,Chris Trujillo,Center Point,110.77,185.97,104.33,158.76,449.06,Single-ply,SBD,M
Boys,124.74,5,Lucas Janysek,Karnes City,118.84,149.69,106.59,188.24,444.52,Single-ply,SBD,M
Boys,124.74,6,Noah Ramirez,Comfort,117.39,158.76,88.45,156.49,403.7,Single-ply,SBD,M
Boys,124.74,7,Sevastan Garica,Dripping Springs,119.29,156.49,88.45,158.76,403.7,Single-ply,SBD,M
Boys,124.74,8,Trent Enriquez,Karnes City,111.77,133.81,102.06,147.42,383.29,Single-ply,SBD,M
Boys,124.74+,1,Manuel Tijerina,Jourdanton,128.37,274.42,154.22,240.4,669.05,Single-ply,SBD,M
Boys,124.74+,2,Tyler Verette,Jourdanton,130.63,199.58,154.22,208.65,562.45,Single-ply,SBD,M
Boys,124.74+,3,Nick O'Bryant,Castroville Medina Valley,128.91,222.26,127.01,204.12,553.38,Single-ply,SBD,M
Boys,124.74+,4,Charest Inman,Castroville Medina Valley,150.14,183.7,147.42,174.63,505.76,Single-ply,SBD,M
Boys,124.74+,5,Garrett Neuman,Castroville Medina Valley,149.87,195.04,127.01,158.76,480.81,Single-ply,SBD,M
