Division,WeightClassKg,Place,Name,Team,BodyweightKg,Best3SquatKg,Best3BenchKg,Best3DeadliftKg,TotalKg,Equipment,Event,Sex,BirthDate
Boys,51.71,1,Tyler Morrow #1,Copperas Cove,51.35,217.72,106.59,210.92,535.24,Single-ply,SBD,M,
Boys,51.71,2,Felipe Garza,McAllen,50.35,181.44,129.27,183.7,494.42,Single-ply,SBD,M,
Boys,51.71,3,Justin Chapa,Edinburg Vela,49.26,174.63,108.86,206.38,489.88,Single-ply,SBD,M,
Boys,51.71,4,Deandre Moody,Donna North,49.26,199.58,97.52,165.56,462.66,Single-ply,SBD,M,
Boys,51.71,5,Jay Vasquez,Weslaco East,51.53,158.76,115.67,174.63,449.06,Single-ply,SBD,M,
Boys,51.71,6,Jacob Martinez,Donna North,50.8,170.1,79.38,188.24,437.72,Single-ply,SBD,M,
Boys,51.71,7,Isaac Rios,Killeen Ellison,51.35,167.83,95.25,170.1,433.18,Single-ply,SBD,M,
Boys,51.71,8,Isaiah Reyes,Plainview,51.53,156.49,83.91,183.7,424.11,Single-ply,SBD,M,
Boys,51.71,9,Marcus Rose,Abilene Wylie,51.71,145.15,92.99,183.7,421.84,Single-ply,SBD,M,
Boys,51.71,10,Coal Aylesworth,Burleson Centennial,51.26,170.1,81.65,167.83,419.57,Single-ply,SBD,M,
Boys,51.71,11,Erik Orta,Victoria West,50.62,161.03,92.99,158.76,412.77,Single-ply,SBD,M,
Boys,51.71,12,Dante Silva,Mission Sharyland,50.98,154.22,95.25,163.29,412.77,Single-ply,SBD,M,
Boys,51.71,13,Eric Sanchez,Everman,50.44,158.76,102.06,147.42,408.23,Single-ply,SBD,M,
Boys,51.71,14,Ethan Hernandez,Harlingen South,50.98,174.63,90.72,142.88,408.23,Single-ply,SBD,M,
Boys,51.71,15,James Medrano,Seguin,49.9,154.22,86.18,163.29,403.7,Single-ply,SBD,M,
Boys,51.71,16,Onesimo Esquivel,San Marcos,51.35,151.95,77.11,167.83,396.89,Single-ply,SBD,M,
Boys,51.71,17,Tyler Hoang,Nederland,50.62,154.22,83.91,154.22,392.36,Single-ply,SBD,M,
Boys,51.71,18,Kody Estes,Donna,50.26,147.42,77.11,163.29,387.82,Single-ply,SBD,M,
Boys,51.71,19,Kennedy Pelico,League City Clear Creek,50.35,136.08,86.18,163.29,385.55,Single-ply,SBD,M,
Boys,51.71,20,Paul Nguyen,Abilene,51.17,154.22,86.18,142.88,383.29,Single-ply,SBD,M,
Boys,51.71,21,Jack Carroll,Dallas Highland Park,51.44,149.69,79.38,154.22,383.29,Single-ply,SBD,M,
Boys,51.71,22,Anthony Ramirez,San Antonio East Central,50.62,120.2,90.72,167.83,378.75,Single-ply,SBD,M,
Boys,51.71,23,Kevin Chavez,Royse City,51.44,131.54,77.11,154.22,362.87,Single-ply,SBD,M,
Boys,51.71,24,Max Williamson,Sulphur Springs,51.62,124.74,81.65,147.42,353.8,Single-ply,SBD,M,
Boys,51.71,DQ,Cruz Vera,Conroe,51.26,138.35,,,,Single-ply,SBD,M,
Boys,51.71,DQ,Justin Moss,Burleson,51.17,161.03,,,,Single-ply,SBD,M,
Boys,51.71,DQ,Cason Brazell,Keller,51.17,154.22,65.77,,,Single-ply,SBD,M,
Boys,55.79,1,Louie Cavazos,Donna North,55.7,226.8,117.93,204.12,548.85,Single-ply,SBD,M,
Boys,55.79,2,Tommy Hession,College Station,54.52,215.46,90.72,204.12,510.29,Single-ply,SBD,M,
Boys,55.79,3,Isaac Jones,Belton,55.34,199.58,92.99,201.85,494.42,Single-ply,SBD,M,
Boys,55.79,4,Nate Martinez #2,Weslaco East,54.61,176.9,124.74,188.24,489.88,Single-ply,SBD,M,
Boys,55.79,5,Joe Hernandez #3,Los Fresnos,55.7,188.24,120.2,181.44,489.88,Single-ply,SBD,M,
Boys,55.79,6,Jorge Martinez,Los Fresnos,54.88,183.7,92.99,210.92,487.61,Single-ply,SBD,M,
Boys,55.79,7,Zachary Rexin,Frisco Lebanon Trail,55.07,181.44,104.33,197.31,483.08,Single-ply,SBD,M,
Boys,55.79,8,Thomas Sandoval,Los Fresnos,54.98,185.97,102.06,188.24,476.27,Single-ply,SBD,M,
Boys,55.79,9,Jonah Lopez,San Antonio Memorial,54.7,192.78,92.99,183.7,469.47,Single-ply,SBD,M,
Boys,55.79,10,Austin Reynolds,Royse City,55.79,174.63,102.06,192.78,469.47,Single-ply,SBD,M,
Boys,55.79,11,Erik Julio,Houston Northbrook,55.34,183.7,92.99,185.97,462.66,Single-ply,SBD,M,
Boys,55.79,12,Ryan McCullough,Burleson,54.34,165.56,102.06,185.97,453.59,Single-ply,SBD,M,
Boys,55.79,13,Luis Garcia,Sharyland Pioneer,55.7,165.56,92.99,190.51,449.06,Single-ply,SBD,M,
Boys,55.79,14,Ty Kirkbride,Denison,54.43,165.56,99.79,181.44,446.79,Single-ply,SBD,M,
Boys,55.79,15,George Isanda,Keller Fossil Ridge,55.61,156.49,108.86,174.63,439.98,Single-ply,SBD,M,
Boys,55.79,16,Matthew Olague,New Caney,55.34,163.29,92.99,181.44,437.72,Single-ply,SBD,M,
Boys,55.79,17,Shiv Ranchhod,Gregory-Portland,54.7,170.1,88.45,176.9,435.45,Single-ply,SBD,M,
Boys,55.79,18,Rhett Hutchins,Whitehouse,54.98,179.17,92.99,158.76,430.91,Single-ply,SBD,M,
Boys,55.79,19,Armando Reta,Kyle Lehman,54.98,188.24,79.38,154.22,421.84,Single-ply,SBD,M,
Boys,55.79,20,John Hernandez,Lubbock Monterey,53.71,156.49,106.59,147.42,410.5,Single-ply,SBD,M,
Boys,55.79,21,Greg Fenalon,Plainview,54.7,149.69,79.38,158.76,387.82,Single-ply,SBD,M,
Boys,55.79,22,Isac Obregon,Lubbock,55.25,124.74,99.79,142.88,367.41,Single-ply,SBD,M,
Boys,55.79,DQ,Josh Perez,Los Fresnos,54.79,,,,,Single-ply,SBD,M,
Boys,55.79,DQ,Brandon Leblanc,Magnolia West,54.07,,,,,Single-ply,SBD,M,
Boys,55.79,DQ,Amari Crowder,Mansfield Timberview,53.16,,,,,Single-ply,SBD,M,
Boys,55.79,DQ,Justin Figueroa,San Antonio East Central,54.61,188.24,111.13,,,Single-ply,SBD,M,
Boys,59.87,1,Brayden Bromonsky,Kyle Lehman,58.6,283.5,124.74,226.8,635.03,Single-ply,SBD,M,
Boys,59.87,2,Jose Jimenez #10,Everman,57.97,263.08,117.93,204.12,585.13,Single-ply,SBD,M,
Boys,59.87,3,Kyson Lusane,Denison,59.06,210.92,136.08,199.58,546.58,Single-ply,SBD,M,
Boys,59.87,4,Enrique Reyes,Marble Falls,59.69,222.26,108.86,213.19,544.31,Single-ply,SBD,M,
Boys,59.87,5,Juan Hernandez #18,Sulphur Springs,58.88,215.46,102.06,217.72,535.24,Single-ply,SBD,M,
Boys,59.87,6,Francisco Villarreal,Laredo Nixon,58.15,199.58,120.2,195.04,514.83,Single-ply,SBD,M,
Boys,59.87,7,Ceyth Grevey,Victoria East,58.97,204.12,106.59,204.12,514.83,Single-ply,SBD,M,
Boys,59.87,8,Miguel H Cruz,San Antonio Southwest Legacy,59.15,185.97,102.06,206.38,494.42,Single-ply,SBD,M,
Boys,59.87,9,Dq Johnson,Keller Fossil Ridge,58.69,190.51,95.25,206.38,492.15,Single-ply,SBD,M,
Boys,59.87,10,Josh Soliz,Seguin,59.51,195.04,111.13,185.97,492.15,Single-ply,SBD,M,
Boys,59.87,11,Seunghak Lee,Lubbock Cooper,59.6,192.78,99.79,199.58,492.15,Single-ply,SBD,M,
Boys,59.87,12,Juan Gomez,Lubbock,57.79,176.9,108.86,199.58,485.34,Single-ply,SBD,M,
Boys,59.87,13,Xzavier Guerrero,Alvin,59.51,197.31,95.25,190.51,483.08,Single-ply,SBD,M,
Boys,59.87,14,Hank Hewgley,Conroe The Woodlands,59.51,192.78,106.59,179.17,478.54,Single-ply,SBD,M,
Boys,59.87,15,Earl Williams,Longview Pine Tree,59.51,142.88,108.86,172.37,424.11,Single-ply,SBD,M,
Boys,59.87,DQ,Michael Morgan,PSJA Memorial,59.33,195.04,,,,Single-ply,SBD,M,
Boys,59.87,NS,Gabriel Garza #2,Brownsville Lopez,,,,,,Single-ply,SBD,M,
Boys,67.13,1,Ever Crispin,Edcouch-Elsa,66.32,283.5,154.22,251.74,689.46,Single-ply,SBD,M,
Boys,67.13,2,Daniel Gil,Conroe The Woodlands,66.95,233.6,158.76,233.6,625.96,Single-ply,SBD,M,
Boys,67.13,3,Kane Jones,Tyler Legacy,66.04,235.87,145.15,233.6,614.62,Single-ply,SBD,M,
Boys,67.13,4,Marcus Saenz,Weslaco,65.5,265.35,138.35,206.38,610.08,Single-ply,SBD,M,
Boys,67.13,5,Joshua Bazan,Castroville Medina Valley,65.68,249.48,129.27,231.33,610.08,Single-ply,SBD,M,
Boys,67.13,6,Landry Carlton,Abilene Wylie,66.41,249.48,131.54,219.99,601.01,Single-ply,SBD,M,
Boys,67.13,7,Ryan Nash,Frisco Reedy,65.5,247.21,124.74,224.53,596.47,Single-ply,SBD,M,
Boys,67.13,8,Nick Moreno,La Joya Juarez-Lincoln,66.5,247.21,124.74,215.46,587.4,Single-ply,SBD,M,
Boys,67.13,9,Tyler Rosales,PSJA North,66.5,224.53,133.81,213.19,571.53,Single-ply,SBD,M,
Boys,67.13,10,Israel Ramos,Brownsville Pace,66.41,226.8,120.2,219.99,566.99,Single-ply,SBD,M,
Boys,67.13,11,Evan Zamora,Weslaco,65.23,226.8,120.2,217.72,564.72,Single-ply,SBD,M,
Boys,67.13,12,Daniel García,Dickinson,66.86,215.46,120.2,229.06,564.72,Single-ply,SBD,M,
Boys,67.13,13,Dylan Ybarra,San Benito,66.13,217.72,136.08,206.38,560.19,Single-ply,SBD,M,
Boys,67.13,14,Joseph Bazan,Castroville Medina Valley,66.04,224.53,117.93,210.92,553.38,Single-ply,SBD,M,
Boys,67.13,15,Gilbert Garcia,Brownsville Hanna,65.23,215.46,120.2,215.46,551.11,Single-ply,SBD,M,
Boys,67.13,16,Isaiah Perales,Harlingen,65.77,204.12,133.81,206.38,544.31,Single-ply,SBD,M,
Boys,67.13,17,Will Eckford,Liberty Hill,66.41,210.92,138.35,195.04,544.31,Single-ply,SBD,M,
Boys,67.13,18,Isaias Salinas,McAllen Memorial,66.41,201.85,124.74,215.46,542.04,Single-ply,SBD,M,
Boys,67.13,19,Christian Negrete,Burleson,65.05,215.46,113.4,210.92,539.77,Single-ply,SBD,M,
Boys,67.13,20,Nic Doros,Frisco Wakeland,65.95,219.99,124.74,192.78,537.51,Single-ply,SBD,M,
Boys,67.13,21,Easton McMillan,Forney,65.41,222.26,120.2,192.78,535.24,Single-ply,SBD,M,
Boys,67.13,22,Juan Palomo,Lubbock,65.41,181.44,108.86,188.24,478.54,Single-ply,SBD,M,
Boys,67.13,23,Royce Knight,Midland,63.5,172.37,88.45,199.58,460.4,Single-ply,SBD,M,
Boys,67.13,DQ,Aidan Flores,Seguin,65.23,210.92,,,,Single-ply,SBD,M,
Boys,67.13,DQ,Jesus Pardo,Brownsville Rivera,65.05,219.99,,,,Single-ply,SBD,M,
Boys,67.13,DQ,Rogelio Barrera,Conroe,66.22,233.6,,,,Single-ply,SBD,M,
Boys,67.13,NS,Kyle Yanez,Edinburg Vela,,,,,,Single-ply,SBD,M,
Boys,74.84,1,Johnathan Cranford,Burleson,73.66,278.96,170.1,226.8,675.85,Single-ply,SBD,M,
Boys,74.84,2,Allan Benavides,Edinburg North,74.03,265.35,140.61,233.6,639.57,Single-ply,SBD,M,
Boys,74.84,3,Aiden Peterson,Conroe The Woodlands,72.3,238.14,147.42,251.74,637.3,Single-ply,SBD,M,
Boys,74.84,4,Sergio Hinojosa,Baytown Goose Creek Memorial,73.39,215.46,136.08,267.62,619.15,Single-ply,SBD,M,
Boys,74.84,5,Harley Rios,Weslaco,73.12,249.48,133.81,233.6,616.89,Single-ply,SBD,M,
Boys,74.84,6,Jack Estill,Keller Central,74.48,226.8,172.37,217.72,616.89,Single-ply,SBD,M,
Boys,74.84,7,Gavin LaFleur,Floresville,71.12,240.4,131.54,235.87,607.81,Single-ply,SBD,M,
Boys,74.84,8,Marco DeTomas,Prosper,73.12,242.67,145.15,219.99,607.81,Single-ply,SBD,M,
Boys,74.84,9,Marckopolo Cavazos,Mission Veterans Memorial,72.3,238.14,122.47,235.87,596.47,Single-ply,SBD,M,
Boys,74.84,10,Jacob Broussard,Brownsville Hanna,73.94,249.48,149.69,197.31,596.47,Single-ply,SBD,M,
Boys,74.84,11,Devin Aguilar,Edinburg North,74.21,233.6,142.88,219.99,596.47,Single-ply,SBD,M,
Boys,74.84,12,Kysen Jackson,Longview,73.3,210.92,151.95,226.8,589.67,Single-ply,SBD,M,
Boys,74.84,13,Roman Mason,Pflugerville Connally,72.39,224.53,131.54,226.8,582.87,Single-ply,SBD,M,
Boys,74.84,14,Justin Rosas,Brownsville Veterans Memorial,73.39,235.87,142.88,204.12,582.87,Single-ply,SBD,M,
Boys,74.84,15,James Harris,Dayton,73.3,215.46,120.2,240.4,576.06,Single-ply,SBD,M,
Boys,74.84,16,Mauricio Kerguelen,Conroe The Woodlands,74.66,224.53,142.88,201.85,569.26,Single-ply,SBD,M,
Boys,74.84,17,Jonah Villareal,Edinburg Vela,73.57,215.46,124.74,210.92,551.11,Single-ply,SBD,M,
Boys,74.84,18,Zion Ward,Midland,73.57,238.14,111.13,199.58,548.85,Single-ply,SBD,M,
Boys,74.84,19,Drayton McCoy,Midland,72.94,195.04,115.67,183.7,494.42,Single-ply,SBD,M,
Boys,74.84,20,Dax Lott,Waxahachie,73.48,61.23,208.65,61.23,331.12,Single-ply,SBD,M,
Boys,74.84,DQ,Ramiro Yanez,PSJA,70.67,,,,,Single-ply,SBD,M,
Boys,74.84,DQ,Angel Cantu,La Joya Palmview,74.21,249.48,145.15,,,Single-ply,SBD,M,
Boys,74.84,DQ,Bladdin Hill,Dickinson,74.12,,,,,Single-ply,SBD,M,
Boys,74.84,DQ,Jose E Hernandez,Brownsville Rivera,73.66,219.99,138.35,,,Single-ply,SBD,M,
Boys,74.84,DQ,Jonathan Martin,Beaumont United,72.76,226.8,,,,Single-ply,SBD,M,
Boys,74.84,DQ,Larry Brooks,Beaumont West Brook,72.94,254.01,,,,Single-ply,SBD,M,
Boys,74.84,DQ,Colton Monroe,Bishop Lynch,72.39,238.14,140.61,,,Single-ply,SBD,M,
Boys,82.1,1,Joel Scott #3,Abilene Wylie,80.56,331.12,179.17,288.03,798.32,Single-ply,SBD,M,
Boys,82.1,2,Sergio Lerma,Weslaco,80.38,319.78,158.76,283.5,762.04,Single-ply,SBD,M,
Boys,82.1,3,Carter Shell,Keller Timber Creek,81.65,288.03,197.31,256.28,741.62,Single-ply,SBD,M,
Boys,82.1,4,Brayden Gardner,Ennis,80.92,272.16,204.12,238.14,714.41,Single-ply,SBD,M,
Boys,82.1,5,Tyrese Francis,Copperas Cove,80.83,285.76,156.49,242.67,684.92,Single-ply,SBD,M,
Boys,82.1,6,LaMarcus Owens,Manvel,81.19,260.82,154.22,263.08,678.12,Single-ply,SBD,M,
Boys,82.1,7,Josue Ceron,Los Fresnos,80.74,247.21,161.03,256.28,664.51,Single-ply,SBD,M,
Boys,82.1,8,Isaiah Lowe,Greenville,80.01,233.6,149.69,260.82,644.1,Single-ply,SBD,M,
Boys,82.1,9,Alec Boyle,White Settlement Brewer,80.65,233.6,188.24,219.99,641.83,Single-ply,SBD,M,
Boys,82.1,10,Ethan Hall,College Station,80.47,260.82,151.95,226.8,639.57,Single-ply,SBD,M,
Boys,82.1,11,Fernando Garcia,Channelview,79.38,260.82,136.08,233.6,630.49,Single-ply,SBD,M,
Boys,82.1,12,Cace Jones,Dickinson,81.56,260.82,113.4,256.28,630.49,Single-ply,SBD,M,
Boys,82.1,13,Javier Ornelas,Mission Veterans Memorial,78.29,233.6,149.69,240.4,623.69,Single-ply,SBD,M,
Boys,82.1,14,Cody Kelley,Montgomery Lake Creek,82.01,249.48,138.35,235.87,623.69,Single-ply,SBD,M,
Boys,82.1,15,Morris Marshall,Killeen Harker Heights,79.47,208.65,131.54,278.96,619.15,Single-ply,SBD,M,
Boys,82.1,16,Izaac Parra,Harlingen South,80.83,256.28,136.08,226.8,619.15,Single-ply,SBD,M,
Boys,82.1,17,Matthew Mitchell,Sulphur Springs,80.65,254.01,138.35,217.72,610.08,Single-ply,SBD,M,
Boys,82.1,18,Fidencio Ortega,La Joya Juarez-Lincoln,80.2,247.21,163.29,197.31,607.81,Single-ply,SBD,M,
Boys,82.1,19,Randal Delgado,Victoria East,77.56,263.08,122.47,219.99,605.55,Single-ply,SBD,M,
Boys,82.1,20,Mike Carter,Magnolia,79.92,247.21,149.69,208.65,605.55,Single-ply,SBD,M,
Boys,82.1,21,Daniel Martinez #24,Victoria East,80.1,240.4,147.42,208.65,596.47,Single-ply,SBD,M,
Boys,82.1,22,Michael Martinez,Seguin,80.74,219.99,151.95,224.53,596.47,Single-ply,SBD,M,
Boys,82.1,23,Nick Beagle,Conroe The Woodlands,82.01,224.53,136.08,233.6,594.21,Single-ply,SBD,M,
Boys,82.1,24,Aden Arredondo,Dickinson,80.01,238.14,142.88,210.92,591.94,Single-ply,SBD,M,
Boys,82.1,25,Sebastian Bejarano,Odessa,81.19,208.65,136.08,219.99,564.72,Single-ply,SBD,M,
Boys,82.1,DQ,Diego Macedo,Kyle Lehman,79.92,285.76,,,,Single-ply,SBD,M,
Boys,82.1,DQ,Zayne Sheppard,Texas City,76.75,260.82,,,,Single-ply,SBD,M,
Boys,82.1,DQ,Juan Saenz,Edinburg North,79.65,,,,,Single-ply,SBD,M,
Boys,82.1,DQ,Jacob Simpkins,Joshua,79.92,260.82,,,,Single-ply,SBD,M,
Boys,89.81,1,Caleb Esparza,Kyle Lehman,88.27,362.87,183.7,256.28,802.86,Single-ply,SBD,M,
Boys,89.81,2,Raymond Zapata,Channelview,88,326.59,167.83,274.42,768.84,Single-ply,SBD,M,
Boys,89.81,3,Miguel Jimenez,Mercedes,88.09,326.59,158.76,278.96,764.3,Single-ply,SBD,M,
Boys,89.81,4,Joe Maldonado,Marble Falls,83.91,317.51,165.56,254.01,737.09,Single-ply,SBD,M,
Boys,89.81,5,Brock Slaydon,College Station A&M Cons,86.45,294.84,172.37,263.08,730.28,Single-ply,SBD,M,
Boys,89.81,6,Caleb Bolay,Whitehouse,88.09,288.03,226.8,210.92,725.75,Single-ply,SBD,M,
Boys,89.81,7,Seth Neibrandt,Victoria West,87.63,272.16,176.9,272.16,721.21,Single-ply,SBD,M,
Boys,89.81,8,Cam'ron Willis,Dayton,87.82,292.57,145.15,283.5,721.21,Single-ply,SBD,M,
Boys,89.81,9,Ryan Pena,San Antonio Southwest,82.37,285.76,170.1,249.48,705.34,Single-ply,SBD,M,
Boys,89.81,10,Andrew Larkworthy,Conroe The Woodlands,88.18,265.35,183.7,247.21,696.26,Single-ply,SBD,M,
Boys,89.81,11,Bobby Flores,Edinburg,87.91,265.35,174.63,249.48,689.46,Single-ply,SBD,M,
Boys,89.81,12,John Vasquez,Edinburg Vela,87.18,265.35,156.49,265.35,687.19,Single-ply,SBD,M,
Boys,89.81,13,Jose Zavala,Weslaco East,87.36,251.74,156.49,272.16,680.39,Single-ply,SBD,M,
Boys,89.81,14,Payton Henninger,Prosper,88.36,260.82,142.88,276.69,680.39,Single-ply,SBD,M,
Boys,89.81,15,Jake Lewis,Frisco Reedy,88.54,254.01,185.97,240.4,680.39,Single-ply,SBD,M,
Boys,89.81,16,Eddie Parker,Alvin,88.54,274.42,174.63,229.06,678.12,Single-ply,SBD,M,
Boys,89.81,17,Caleb Robb,Royse City,88.9,276.69,158.76,233.6,669.05,Single-ply,SBD,M,
Boys,89.81,18,Nicholas Stoughton,Alvin,87.72,274.42,163.29,226.8,664.51,Single-ply,SBD,M,
Boys,89.81,19,Jonathan Gonzalez,Plainview,82.64,260.82,170.1,231.33,662.24,Single-ply,SBD,M,
Boys,89.81,20,Reggie Williams,Crandall,89.18,260.82,167.83,229.06,657.71,Single-ply,SBD,M,
Boys,89.81,21,Zeek Cuadors,Mission,88.18,272.16,147.42,233.6,653.17,Single-ply,SBD,M,
Boys,89.81,22,Nathan Peralta,San Antonio Southside,87.54,254.01,149.69,247.21,650.91,Single-ply,SBD,M,
Boys,89.81,23,Robert Dorado,Magnolia West,88.54,263.08,149.69,235.87,648.64,Single-ply,SBD,M,
Boys,89.81,24,Gerardo Enriquez,Laredo Alexander,88.27,226.8,158.76,260.82,646.37,Single-ply,SBD,M,
Boys,89.81,25,Blake Martinez,Mesquite Poteet,88.72,244.94,165.56,233.6,644.1,Single-ply,SBD,M,
Boys,89.81,26,Jamal Gray,Texas City,89.81,256.28,158.76,229.06,644.1,Single-ply,SBD,M,
Boys,89.81,27,Ben Hatcher,Sulphur Springs,89.36,254.01,145.15,242.67,641.83,Single-ply,SBD,M,
Boys,89.81,28,Jonathan Sagastizado,Dickinson,88.09,251.74,136.08,249.48,637.3,Single-ply,SBD,M,
Boys,89.81,29,Anthony Del Angel,Sharyland Pioneer,89.81,244.94,147.42,244.94,637.3,Single-ply,SBD,M,
Boys,89.81,30,Sebastian Lozano,Brownsville Hanna,88.81,274.42,151.95,208.65,635.03,Single-ply,SBD,M,
Boys,89.81,31,Christian Lopez #9,Bastrop,88.54,226.8,154.22,235.87,616.89,Single-ply,SBD,M,
Boys,89.81,32,Jaileel Ross,Lubbock Cooper,85.18,183.7,129.27,249.48,562.45,Single-ply,SBD,M,
Boys,89.81,DQ,Jose Cavazos,McAllen Rowe,88.18,251.74,140.61,,,Single-ply,SBD,M,
Boys,89.81,DQ,Zeke Aguilar,Los Fresnos,87,,,,,Single-ply,SBD,M,
Boys,89.81,DQ,Khalil Smith,Frisco Reedy,88.72,238.14,165.56,,,Single-ply,SBD,M,
Boys,99.79,1,Anthony Elvir,Los Fresnos,98.25,312.98,188.24,290.3,791.52,Single-ply,SBD,M,
Boys,99.79,2,Roan Galvan,Mercedes,96.25,319.78,185.97,256.28,762.04,Single-ply,SBD,M,
Boys,99.79,3,Seth Bullard,Castroville Medina Valley,97.79,317.51,199.58,244.94,762.04,Single-ply,SBD,M,
Boys,99.79,4,Demontae Seymore,Manvel,96.07,281.23,176.9,283.5,741.62,Single-ply,SBD,M,
Boys,99.79,5,Yael Herrera,Edinburg,98.16,288.03,185.97,265.35,739.36,Single-ply,SBD,M,
Boys,99.79,6,Zach Essih,Mansfield Timberview,97.43,301.64,154.22,276.69,732.55,Single-ply,SBD,M,
Boys,99.79,7,David May #4,College Station A&M Cons,91.53,317.51,149.69,263.08,730.28,Single-ply,SBD,M,
Boys,99.79,8,Hayden Branson,Hallsville,92.17,272.16,188.24,251.74,712.14,Single-ply,SBD,M,
Boys,99.79,9,Alex Martin #2,Conroe The Woodlands,96.25,288.03,167.83,242.67,698.53,Single-ply,SBD,M,
Boys,99.79,10,Jacob Maldonado,Marble Falls,95.25,265.35,165.56,265.35,696.26,Single-ply,SBD,M,
Boys,99.79,11,Thomas Thornburg,Georgetown East View,97.7,272.16,151.95,272.16,696.26,Single-ply,SBD,M,
Boys,99.79,12,Myles Terry,Conroe Oak Ridge,98.61,258.55,179.17,254.01,691.73,Single-ply,SBD,M,
Boys,99.79,13,Cayden Clayton,Conroe The Woodlands,94.62,281.23,165.56,242.67,689.46,Single-ply,SBD,M,
Boys,99.79,14,Nathan Evans,Los Fresnos,97.25,272.16,165.56,249.48,687.19,Single-ply,SBD,M,
Boys,99.79,15,Chad Maynard,Sulphur Springs,96.8,283.5,165.56,226.8,675.85,Single-ply,SBD,M,
Boys,99.79,16,Mark Daniels,Longview Pine Tree,95.8,265.35,190.51,204.12,659.98,Single-ply,SBD,M,
Boys,99.79,17,Santos Avalos,Brownsville Hanna,97.98,274.42,138.35,240.4,653.17,Single-ply,SBD,M,
Boys,99.79,18,Josue Moralez,Weslaco East,98.43,247.21,167.83,235.87,650.91,Single-ply,SBD,M,
Boys,99.79,19,Taj Johnson,Del Valle,98.7,254.01,147.42,247.21,648.64,Single-ply,SBD,M,
Boys,99.79,20,Val Wylie,Abilene Wylie,97.52,278.96,154.22,208.65,641.83,Single-ply,SBD,M,
Boys,99.79,DQ,Lucas Hagler,Ennis,96.98,256.28,172.37,,,Single-ply,SBD,M,
Boys,99.79,DQ,Russel Hasselmeier,Montgomery,92.71,274.42,165.56,,,Single-ply,SBD,M,
Boys,99.79,NS,Daniel Seals,Weatherford,,,,,,Single-ply,SBD,M,
Boys,99.79,DQ,Jacob Deax,Abilene Cooper,97.07,,,,,Single-ply,SBD,M,
Boys,99.79,DQ,Tony Teeples,Texas City,96.98,254.01,145.15,,,Single-ply,SBD,M,
Boys,109.77,1,Abdias Castillo,Elgin,104.96,312.98,199.58,265.35,777.91,Single-ply,SBD,M,
Boys,109.77,2,Ethan Tullos-Chapa,San Antonio Southwest Legacy,108.59,297.1,219.99,260.82,777.91,Single-ply,SBD,M,
Boys,109.77,3,Ryan Creasy,McAllen Rowe,106.59,265.35,219.99,278.96,764.3,Single-ply,SBD,M,
Boys,109.77,4,Noe Castillo,Weslaco East,108.5,290.3,217.72,256.28,764.3,Single-ply,SBD,M,
Boys,109.77,5,Payton Korolyk,Conroe Grand Oaks,107.86,290.3,190.51,274.42,755.23,Single-ply,SBD,M,
Boys,109.77,6,Ryan Cain,Victoria East,104.14,331.12,154.22,265.35,750.7,Single-ply,SBD,M,
Boys,109.77,7,Casy Adjei,Prosper Rock Hill,103.15,288.03,174.63,274.42,737.09,Single-ply,SBD,M,
Boys,109.77,8,Clark Griffin,San Antonio Southwest,100.33,299.37,170.1,265.35,734.82,Single-ply,SBD,M,
Boys,109.77,9,Joseph Guerra,Edinburg Economedes,107.23,283.5,188.24,260.82,732.55,Single-ply,SBD,M,
Boys,109.77,10,Cooper Zelazny,Joshua,108.95,299.37,176.9,254.01,730.28,Single-ply,SBD,M,
Boys,109.77,11,Perry Irchirl,Conroe Woodlands College Park,107.41,272.16,158.76,294.84,725.75,Single-ply,SBD,M,
Boys,109.77,12,Justyn Esquivel,Edcouch-Elsa,107.77,281.23,185.97,244.94,712.14,Single-ply,SBD,M,
Boys,109.77,13,Jesus Hernandez #5,Brownsville Rivera,106.23,281.23,195.04,233.6,709.87,Single-ply,SBD,M,
Boys,109.77,14,Mark Lara,Gregory-Portland,100.97,281.23,167.83,258.55,707.6,Single-ply,SBD,M,
Boys,109.77,15,Alex Flores,Clute Brazoswood,105.69,283.5,172.37,249.48,705.34,Single-ply,SBD,M,
Boys,109.77,16,Kolten Trevino,Granbury,106.32,288.03,174.63,242.67,705.34,Single-ply,SBD,M,
Boys,109.77,17,Micah Shepherd,Mount Pleasant,107.77,281.23,174.63,244.94,700.8,Single-ply,SBD,M,
Boys,109.77,18,Kelvin Flores,Weslaco East,108.41,254.01,190.51,256.28,700.8,Single-ply,SBD,M,
Boys,109.77,19,Andrew Bailey,Princeton,106.91,265.35,174.63,258.55,698.53,Single-ply,SBD,M,
Boys,109.77,20,Perry Izaiah,Burleson,108.14,278.96,181.44,238.14,698.53,Single-ply,SBD,M,
Boys,109.77,21,Christoval Villarreal,McAllen,105.6,267.62,163.29,260.82,691.73,Single-ply,SBD,M,
Boys,109.77,22,Brayden Smith,Midlothian,107.68,242.67,167.83,272.16,682.66,Single-ply,SBD,M,
Boys,109.77,23,Emiliano Portillo,Greenville,103.42,281.23,172.37,219.99,673.58,Single-ply,SBD,M,
Boys,109.77,24,Dawson Hall,Canyon Randall,101.97,249.48,151.95,226.8,628.23,Single-ply,SBD,M,
Boys,109.77,DQ,Chidi Adighibe,Katy Mayde Creek,106.32,281.23,,,,Single-ply,SBD,M,
Boys,109.77,DQ,Joe Bolanos,Odessa,108.05,292.57,,,,Single-ply,SBD,M,
Boys,124.74,1,Jaxon Lunsford,Abilene Wylie,120.38,340.19,226.8,278.96,845.95,Single-ply,SBD,M,
Boys,124.74,2,Michael Pinones,San Antonio East Central,122.29,292.57,199.58,292.57,784.71,Single-ply,SBD,M,
Boys,124.74,3,Tariq Robinson,Tyler Legacy,116.57,308.44,235.87,235.87,780.18,Single-ply,SBD,M,
Boys,124.74,4,Dante Ramones,Edinburg North,122.29,310.71,204.12,265.35,780.18,Single-ply,SBD,M,
Boys,124.74,5,Carlos Rodriguez #13,McAllen Memorial,116.39,317.51,199.58,238.14,755.23,Single-ply,SBD,M,
Boys,124.74,6,William Yang,Conroe Grand Oaks,121.83,312.98,165.56,272.16,750.7,Single-ply,SBD,M,
Boys,124.74,7,Nash Gagliano,Prosper,122.74,294.84,206.38,242.67,743.89,Single-ply,SBD,M,
Boys,124.74,8,John Avila,Brownsville Hanna,122.56,317.51,161.03,260.82,739.36,Single-ply,SBD,M,
Boys,124.74,9,Anthony Garcia,PSJA North,120.29,317.51,181.44,238.14,737.09,Single-ply,SBD,M,
Boys,124.74,10,Michael Valenta,Georgetown,123.29,283.5,181.44,272.16,737.09,Single-ply,SBD,M,
Boys,124.74,11,Karson Daniel,Weatherford,117.84,283.5,197.31,244.94,725.75,Single-ply,SBD,M,
Boys,124.74,12,Cobe Williams,Conroe Woodlands College Park,123.74,276.69,190.51,258.55,725.75,Single-ply,SBD,M,
Boys,124.74,13,Aiden Safford,Rio Grande City,121.74,267.62,179.17,274.42,721.21,Single-ply,SBD,M,
Boys,124.74,14,Alexander Handy,Bastrop Cedar Creek,122.11,317.51,149.69,254.01,721.21,Single-ply,SBD,M,
Boys,124.74,15,Cayden Clay,Abilene Wylie,120.84,283.5,192.78,235.87,712.14,Single-ply,SBD,M,
Boys,124.74,16,Bradley Gregory,Joshua,123.65,294.84,174.63,240.4,709.87,Single-ply,SBD,M,
Boys,124.74,17,Jaen Escamilla,Richardson Lake Highlands,122.92,294.84,165.56,244.94,705.34,Single-ply,SBD,M,
Boys,124.74,18,Edgar Otero,Donna North,117.48,290.3,167.83,235.87,694,Single-ply,SBD,M,
Boys,124.74,19,Robert Orr #1,White Settlement Brewer,117.12,274.42,172.37,244.94,691.73,Single-ply,SBD,M,
Boys,124.74,DQ,Jacob Harris,Conroe Oak Ridge,116.94,299.37,,,,Single-ply,SBD,M,
Boys,124.74,NS,Keiran Phounsavath,Royse City,,,,,,Single-ply,SBD,M,
Boys,139.71,1,Xzavier Collins,Abilene Wylie,136.35,362.87,260.82,328.85,952.54,Single-ply,SBD,M,
Boys,139.71,2,Abisai Tijerina,Edinburg Economedes,133.72,340.19,170.1,290.3,800.59,Single-ply,SBD,M,
Boys,139.71,3,Matthew Ybarbo,Brownsville Rivera,135.62,285.76,208.65,281.23,775.64,Single-ply,SBD,M,
Boys,139.71,4,Joseph Lightfoot,College Station A&M Cons,134.17,317.51,185.97,267.62,771.11,Single-ply,SBD,M,
Boys,139.71,5,Thomas Santillan,Weslaco,135.44,340.19,158.76,260.82,759.77,Single-ply,SBD,M,
Boys,139.71,6,Jaime Palafox,Los Fresnos,135.9,294.84,188.24,272.16,755.23,Single-ply,SBD,M,
Boys,139.71,7,Adrian Anderson,Everman,136.35,319.78,201.85,226.8,748.43,Single-ply,SBD,M,
Boys,139.71,8,Jason Batiste,Bryan Rudder,132.63,317.51,185.97,238.14,741.62,Single-ply,SBD,M,
Boys,139.71,9,Zach Rogers,Willis,136.53,292.57,188.24,260.82,741.62,Single-ply,SBD,M,
Boys,139.71,10,Aj Belser,Conroe Grand Oaks,138.44,283.5,195.04,254.01,732.55,Single-ply,SBD,M,
Boys,139.71,11,Brandon Childs,Texarkana Texas,128.09,301.64,174.63,249.48,725.75,Single-ply,SBD,M,
Boys,139.71,12,Josh Johnson,Joshua,128.37,283.5,176.9,260.82,721.21,Single-ply,SBD,M,
Boys,139.71,13,Oscar de la Cruz,PSJA Southwest,135.44,281.23,183.7,251.74,716.68,Single-ply,SBD,M,
Boys,139.71,14,Karson Jones,Wolfforth Frenship,132.99,247.21,179.17,274.42,700.8,Single-ply,SBD,M,
Boys,139.71,15,Reese Mercer,Forney,130.27,283.5,151.95,235.87,671.32,Single-ply,SBD,M,
Boys,139.71,16,Keshaun Johnson,Keller Fossil Ridge,137.89,267.62,174.63,226.8,669.05,Single-ply,SBD,M,
Boys,139.71,DQ,Ray Holloman,Brownsville Veterans Memorial,127.1,,,,,Single-ply,SBD,M,
Boys,139.71+,1,Caleb Davis,Harlingen South,161.21,365.14,222.26,260.82,848.22,Single-ply,SBD,M,
Boys,139.71+,2,Seth Martin,Everman,140.34,328.85,195.04,294.84,818.73,Single-ply,SBD,M,
Boys,139.71+,3,Emilio Dominguez,Odessa,141.97,347,190.51,269.89,807.39,Single-ply,SBD,M,
Boys,139.71+,4,John Martinez-Guedry,Midland,150.14,303.91,222.26,274.42,800.59,Single-ply,SBD,M,
Boys,139.71+,5,Alex Sutton,Granbury,146.69,308.44,201.85,281.23,791.52,Single-ply,SBD,M,
Boys,139.71+,6,German Woo,Brownsville Hanna,145.78,347,174.63,265.35,786.98,Single-ply,SBD,M,
Boys,139.71+,7,Tavion Byars,Montgomery Lake Creek,167.56,331.12,185.97,269.89,786.98,Single-ply,SBD,M,
Boys,139.71+,8,Jamarion Owens,Mercedes,144.97,340.19,181.44,263.08,784.71,Single-ply,SBD,M,
Boys,139.71+,9,Manny Torres,Laredo Cigarroa,148.87,335.66,174.63,263.08,773.37,Single-ply,SBD,M,
Boys,139.71+,10,Josiah Mason,Dickinson,154.77,312.98,213.19,244.94,771.11,Single-ply,SBD,M,
Boys,139.71+,11,Ismael Alvarez,South Garland,160.48,306.17,183.7,272.16,762.04,Single-ply,SBD,M,
Boys,139.71+,12,Ivan Garcia #1,San Antonio Memorial,146.6,335.66,179.17,240.4,755.23,Single-ply,SBD,M,
Boys,139.71+,13,Sebastian Martinez,Rockwall Heath,158.76,319.78,163.29,265.35,748.43,Single-ply,SBD,M,
Boys,139.71+,DQ,Thomas Rose,Huntsville,141.25,283.5,,,,Single-ply,SBD,M,
