Division,WeightClassKg,Place,Name,Team,BodyweightKg,Best3SquatKg,Best3BenchKg,Best3DeadliftKg,TotalKg,Equipment,Event,Sex,BirthDate
Boys,51.71,1,Onesimo Esquivel,San Marcos,51.71,147.42,77.11,161.03,385.55,Single-ply,SBD,M,
Boys,51.71,2,Emilio Rangel,Buda Johnson,49.53,102.06,72.57,136.08,310.71,Single-ply,SBD,M,
Boys,51.71,3,A Phi Le,Pflugerville,49.17,106.59,63.5,129.27,299.37,Single-ply,SBD,M,
Boys,51.71,4,Austin Patrick,Buda Johnson,49.44,102.06,61.23,136.08,299.37,Single-ply,SBD,M,
Boys,51.71,5,Eden Mendez,San Marcos,51.71,104.33,45.36,113.4,263.08,Single-ply,SBD,M,
Boys,51.71,6,Karson Kelnar,Buda Hays,45.45,77.11,45.36,72.57,195.04,Single-ply,SBD,M,
Boys,55.79,1,Marcos Perez-Garcia,Geronimo Navarro,53.71,136.08,104.33,156.49,396.89,Single-ply,SBD,M,
Boys,55.79,2,Dj Hamilton,Buda Johnson,55.16,138.35,79.38,136.08,353.8,Single-ply,SBD,M,
Boys,55.79,3,Diego Carmona,San Marcos,55.61,83.91,56.7,83.91,224.53,Single-ply,SBD,M,
Boys,55.79,4,Leo Chandler,Kyle Lehman,53.25,70.31,45.36,79.38,195.04,Single-ply,SBD,M,
Boys,55.79,5,Matthew Tobias,Kyle Lehman,54.7,27.22,24.95,31.75,83.91,Single-ply,SBD,M,
Boys,59.87,1,Julian Enriquez,Buda Johnson,59.87,172.37,92.99,179.17,444.52,Single-ply,SBD,M,
Boys,59.87,2,Nate Cavarrubio,Buda Johnson,59.78,154.22,83.91,154.22,392.36,Single-ply,SBD,M,
Boys,59.87,3,Augustine Vasquez,San Marcos,57.52,138.35,63.5,142.88,344.73,Single-ply,SBD,M,
Boys,59.87,4,Eddy Chavez,Del Valle,56.52,97.52,56.7,124.74,278.96,Single-ply,SBD,M,
Boys,67.13,1,Zach Decker,San Marcos,65.5,154.22,88.45,174.63,417.3,Single-ply,SBD,M,
Boys,67.13,2,James Townsend #2,Pflugerville,65.32,142.88,83.91,158.76,385.55,Single-ply,SBD,M,
Boys,67.13,3,Christian Smith,Buda Hays,66.5,147.42,81.65,142.88,371.95,Single-ply,SBD,M,
Boys,67.13,4,Lucas Yull,Buda Hays,63.96,115.67,97.52,142.88,356.07,Single-ply,SBD,M,
Boys,67.13,5,Adan Velasquez,Del Valle,65.41,106.59,90.72,151.95,349.27,Single-ply,SBD,M,
Boys,67.13,6,Juan Mendez Lopez,Del Valle,65.14,108.86,83.91,127.01,319.78,Single-ply,SBD,M,
Boys,67.13,7,Roberto Aguillar,Del Valle,66.68,72.57,61.23,115.67,249.48,Single-ply,SBD,M,
Boys,74.84,1,Roman Mason,Pflugerville Connally,70.58,192.78,115.67,206.38,514.83,Single-ply,SBD,M,
Boys,74.84,2,Izaac Zamora,Geronimo Navarro,74.03,195.04,122.47,192.78,510.29,Single-ply,SBD,M,
Boys,74.84,3,Ashton Durst,Buda Johnson,74.84,204.12,106.59,197.31,508.02,Single-ply,SBD,M,
Boys,74.84,4,Nick Schwarzlose,Geronimo Navarro,71.4,183.7,108.86,188.24,480.81,Single-ply,SBD,M,
Boys,74.84,5,Joseph Nguyen,Pflugerville Connally,74.84,192.78,102.06,183.7,478.54,Single-ply,SBD,M,
Boys,74.84,6,Ryan Nguyen,Comal Canyon,74.12,174.63,92.99,185.97,453.59,Single-ply,SBD,M,
Boys,74.84,7,Ryland Stephenson,Comal Canyon,74.48,120.2,111.13,170.1,401.43,Single-ply,SBD,M,
Boys,74.84,8,Jacinto Reyes,Comal Canyon,69.76,124.74,83.91,174.63,383.29,Single-ply,SBD,M,
Boys,74.84,9,Romanus Ike,Pflugerville,74.48,129.27,68.04,176.9,374.21,Single-ply,SBD,M,
Boys,74.84,10,Logan Gomez,Comal Canyon,73.66,113.4,86.18,145.15,344.73,Single-ply,SBD,M,
Boys,74.84,11,Jayden Perez #2,Buda Hays,70.4,106.59,65.77,117.93,290.3,Single-ply,SBD,M,
Boys,74.84,12,Enrique Olan,Del Valle,69.94,97.52,65.77,113.4,276.69,Single-ply,SBD,M,
Boys,82.1,1,Brandon Melendez,Buda Johnson,79.02,201.85,136.08,192.78,530.7,Single-ply,SBD,M,
Boys,82.1,2,Vincent Siv,Del Valle,78.56,174.63,117.93,197.31,489.88,Single-ply,SBD,M,
Boys,82.1,3,Hayden Toliver,Geronimo Navarro,77.11,163.29,106.59,174.63,444.52,Single-ply,SBD,M,
Boys,82.1,4,Ivan Caballero,Del Valle,76.38,127.01,81.65,172.37,381.02,Single-ply,SBD,M,
Boys,82.1,5,Aden Reta,Kyle Lehman,79.02,113.4,97.52,154.22,365.14,Single-ply,SBD,M,
Boys,82.1,6,Kenneth Pease,San Marcos,78.93,124.74,79.38,142.88,347,Single-ply,SBD,M,
Boys,82.1,7,Matheus Eifling,Kyle Lehman,76.29,52.16,49.9,74.84,176.9,Single-ply,SBD,M,
Boys,89.81,1,Gaurionex Suarez,San Marcos,89.36,226.8,131.54,206.38,564.72,Single-ply,SBD,M,
Boys,89.81,2,Allan Romero,Del Valle,89.63,201.85,117.93,224.53,544.31,Single-ply,SBD,M,
Boys,89.81,3,Jake Hooks,Buda Johnson,89.72,204.12,111.13,192.78,508.02,Single-ply,SBD,M,
Boys,89.81,4,Mack Berry,Geronimo Navarro,88.81,183.7,124.74,190.51,498.95,Single-ply,SBD,M,
Boys,89.81,5,Diego Campos,Geronimo Navarro,86.55,176.9,117.93,199.58,494.42,Single-ply,SBD,M,
Boys,89.81,6,Donovan Mendoza,Kyle Lehman,89.81,142.88,129.27,183.7,455.86,Single-ply,SBD,M,
Boys,89.81,7,Zech Martin,San Marcos,86.64,172.37,122.47,154.22,449.06,Single-ply,SBD,M,
Boys,89.81,8,Aden Ramirez,Pflugerville Connally,87.09,161.03,95.25,192.78,449.06,Single-ply,SBD,M,
Boys,89.81,9,Julian Ordonez,Comal Canyon,87.18,151.95,106.59,151.95,410.5,Single-ply,SBD,M,
Boys,89.81,10,Hunter Levay,Comal Canyon,87.82,138.35,102.06,170.1,410.5,Single-ply,SBD,M,
Boys,89.81,11,Sean Bean,Pflugerville,88.18,158.76,88.45,161.03,408.23,Single-ply,SBD,M,
Boys,89.81,12,Jacob Crosby,Buda Hays,87.27,124.74,83.91,124.74,333.39,Single-ply,SBD,M,
Boys,89.81,13,Marcus Hernandez,Buda Hays,84.55,129.27,65.77,124.74,319.78,Single-ply,SBD,M,
Boys,99.79,1,Taj Johnson,Del Valle,99.06,226.8,124.74,226.8,578.33,Single-ply,SBD,M,
Boys,99.79,2,Trey Snowberger,Pflugerville,95.62,188.24,142.88,183.7,514.83,Single-ply,SBD,M,
Boys,99.79,3,Joseph Painter,Comal Canyon,97.16,192.78,120.2,199.58,512.56,Single-ply,SBD,M,
Boys,99.79,4,Christian Ramirez #8,Buda Hays,96.16,181.44,142.88,183.7,508.02,Single-ply,SBD,M,
Boys,99.79,5,Matt Richardson,Geronimo Navarro,90.49,188.24,133.81,183.7,505.76,Single-ply,SBD,M,
Boys,99.79,6,Joel Vargas,San Marcos,96.43,156.49,120.2,167.83,444.52,Single-ply,SBD,M,
Boys,99.79,7,Noah Cruz,Pflugerville,92.17,129.27,83.91,163.29,376.48,Single-ply,SBD,M,
Boys,109.77,1,Tristan Borrman,Buda Johnson,105.23,210.92,129.27,192.78,532.97,Single-ply,SBD,M,
Boys,109.77,2,Elton James Caldwell,Pflugerville,109.77,170.1,108.86,229.06,508.02,Single-ply,SBD,M,
Boys,109.77,3,Xavier Martinez,Comal Canyon,102.6,183.7,120.2,192.78,496.68,Single-ply,SBD,M,
Boys,109.77,4,Brett Aranchado,Pflugerville,100.88,163.29,120.2,183.7,467.2,Single-ply,SBD,M,
Boys,109.77,5,Lucas Francis,Comal Canyon,104.78,161.03,92.99,199.58,453.59,Single-ply,SBD,M,
Boys,109.77,6,Jordan Williamson,Pflugerville,104.51,133.81,90.72,154.22,378.75,Single-ply,SBD,M,
Boys,124.74,1,Garrett Zuma,Buda Johnson,122.65,240.4,129.27,215.46,585.13,Single-ply,SBD,M,
Boys,124.74,2,Joseph Leal,Buda Hays,124.01,251.74,124.74,192.78,569.26,Single-ply,SBD,M,
Boys,124.74,3,Caleb Gomez,Buda Johnson,112.4,226.8,113.4,204.12,544.31,Single-ply,SBD,M,
Boys,124.74,4,Nathan Rodriguez,Buda Hays,116.94,188.24,129.27,188.24,505.76,Single-ply,SBD,M,
Boys,124.74,5,Hunter Schonefeld,Comal Canyon,122.11,204.12,102.06,185.97,492.15,Single-ply,SBD,M,
Boys,124.74,6,Alexander Robinson,San Marcos,117.66,183.7,142.88,158.76,485.34,Single-ply,SBD,M,
Boys,124.74,7,Roger Garza,Buda Johnson,117.57,192.78,106.59,183.7,483.08,Single-ply,SBD,M,
Boys,124.74,8,AJ Perez,San Marcos,110.59,170.1,113.4,151.95,435.45,Single-ply,SBD,M,
Boys,124.74,9,Tate Davis,Comal Canyon,111.99,147.42,95.25,172.37,415.04,Single-ply,SBD,M,
Boys,124.74,10,Diego Sanchez,Comal Canyon,124.74,115.67,90.72,151.95,358.34,Single-ply,SBD,M,
Boys,124.74,11,Jason Goellner,Del Valle,121.02,122.47,90.72,140.61,353.8,Single-ply,SBD,M,
Boys,124.74,12,Angel Martinez #14,Del Valle,121.11,,111.13,136.08,247.21,Single-ply,BD,M,
Boys,124.74,DQ,Diego Salazar,Pflugerville Connally,116.12,,,,,Single-ply,SBD,M,
Boys,139.71,1,Dylan Clifton,Buda Hays,132.99,206.38,138.35,208.65,553.38,Single-ply,SBD,M,
Boys,139.71,2,Javier Jimenez,Kyle Lehman,126.28,183.7,122.47,188.24,494.42,Single-ply,SBD,M,
Boys,139.71,3,Kevin Morales,San Marcos,129.91,192.78,113.4,188.24,494.42,Single-ply,SBD,M,
Boys,139.71,4,Jaxon Taylor,Del Valle,138.98,129.27,102.06,136.08,367.41,Single-ply,SBD,M,
Boys,139.71,5,Jonathan Pesina,Buda Hays,135.71,129.27,88.45,129.27,347,Single-ply,SBD,M,
Boys,139.71,6,Jacob Hoffer,Pflugerville,138.44,,117.93,151.95,269.89,Single-ply,BD,M,
Boys,,NS,John Galan,Kyle Lehman,,,,,,Single-ply,SBD,M,
Boys,,NS,Brody Whitson,Geronimo Navarro,,,,,,Single-ply,SBD,M,
Boys,,NS,Houston Berry,Geronimo Navarro,,,,,,Single-ply,SBD,M,
Boys,,NS,Trey Garner,Geronimo Navarro,,,,,,Single-ply,SBD,M,
Boys,,NS,Caleb Shiroky,Geronimo Navarro,,,,,,Single-ply,SBD,M,
Boys,,NS,Case Monroe,Geronimo Navarro,,,,,,Single-ply,SBD,M,
Boys,,NS,Justin Santos,Pflugerville Connally,,,,,,Single-ply,SBD,M,
Boys,,NS,Jarod Crouch,Buda Hays,,,,,,Single-ply,SBD,M,
